(module "SOIC127P1030X265-16N" (layer F.Cu)
  (descr "DW0016A 2021")
  (tags "Integrated Circuit")
  (attr smd)
  (fp_text reference IC** (at 0 0) (layer F.SilkS)
    (effects (font (size 1.27 1.27) (thickness 0.254)))
  )
  (fp_text user %R (at 0 0) (layer F.Fab)
    (effects (font (size 1.27 1.27) (thickness 0.254)))
  )
  (fp_text value "SOIC127P1030X265-16N" (at 0 0) (layer F.SilkS) hide
    (effects (font (size 1.27 1.27) (thickness 0.254)))
  )
  (fp_line (start -5.95 -5.5) (end 5.95 -5.5) (layer F.CrtYd) (width 0.05))
  (fp_line (start 5.95 -5.5) (end 5.95 5.5) (layer F.CrtYd) (width 0.05))
  (fp_line (start 5.95 5.5) (end -5.95 5.5) (layer F.CrtYd) (width 0.05))
  (fp_line (start -5.95 5.5) (end -5.95 -5.5) (layer F.CrtYd) (width 0.05))
  (fp_line (start -3.75 -5.15) (end 3.75 -5.15) (layer F.Fab) (width 0.1))
  (fp_line (start 3.75 -5.15) (end 3.75 5.15) (layer F.Fab) (width 0.1))
  (fp_line (start 3.75 5.15) (end -3.75 5.15) (layer F.Fab) (width 0.1))
  (fp_line (start -3.75 5.15) (end -3.75 -5.15) (layer F.Fab) (width 0.1))
  (fp_line (start -3.75 -3.88) (end -2.48 -5.15) (layer F.Fab) (width 0.1))
  (fp_line (start -3.4 -5.15) (end 3.4 -5.15) (layer F.SilkS) (width 0.2))
  (fp_line (start 3.4 -5.15) (end 3.4 5.15) (layer F.SilkS) (width 0.2))
  (fp_line (start 3.4 5.15) (end -3.4 5.15) (layer F.SilkS) (width 0.2))
  (fp_line (start -3.4 5.15) (end -3.4 -5.15) (layer F.SilkS) (width 0.2))
  (fp_line (start -5.7 -5.12) (end -3.75 -5.12) (layer F.SilkS) (width 0.2))
  (pad 1 smd rect (at -4.725 -4.445 90) (size 0.65 1.95) (layers F.Cu F.Paste F.Mask))
  (pad 2 smd rect (at -4.725 -3.175 90) (size 0.65 1.95) (layers F.Cu F.Paste F.Mask))
  (pad 3 smd rect (at -4.725 -1.905 90) (size 0.65 1.95) (layers F.Cu F.Paste F.Mask))
  (pad 4 smd rect (at -4.725 -0.635 90) (size 0.65 1.95) (layers F.Cu F.Paste F.Mask))
  (pad 5 smd rect (at -4.725 0.635 90) (size 0.65 1.95) (layers F.Cu F.Paste F.Mask))
  (pad 6 smd rect (at -4.725 1.905 90) (size 0.65 1.95) (layers F.Cu F.Paste F.Mask))
  (pad 7 smd rect (at -4.725 3.175 90) (size 0.65 1.95) (layers F.Cu F.Paste F.Mask))
  (pad 8 smd rect (at -4.725 4.445 90) (size 0.65 1.95) (layers F.Cu F.Paste F.Mask))
  (pad 9 smd rect (at 4.725 4.445 90) (size 0.65 1.95) (layers F.Cu F.Paste F.Mask))
  (pad 10 smd rect (at 4.725 3.175 90) (size 0.65 1.95) (layers F.Cu F.Paste F.Mask))
  (pad 11 smd rect (at 4.725 1.905 90) (size 0.65 1.95) (layers F.Cu F.Paste F.Mask))
  (pad 12 smd rect (at 4.725 0.635 90) (size 0.65 1.95) (layers F.Cu F.Paste F.Mask))
  (pad 13 smd rect (at 4.725 -0.635 90) (size 0.65 1.95) (layers F.Cu F.Paste F.Mask))
  (pad 14 smd rect (at 4.725 -1.905 90) (size 0.65 1.95) (layers F.Cu F.Paste F.Mask))
  (pad 15 smd rect (at 4.725 -3.175 90) (size 0.65 1.95) (layers F.Cu F.Paste F.Mask))
  (pad 16 smd rect (at 4.725 -4.445 90) (size 0.65 1.95) (layers F.Cu F.Paste F.Mask))
  (model ISO6741QDWRQ1.stp
    (at (xyz 0 0 0))
    (scale (xyz 1 1 1))
    (rotate (xyz 0 0 0))
  )
)
