(module "SOT95P284X110-6N" (layer F.Cu)
  (descr "TSOP 6LEAD")
  (tags "Transistor")
  (attr smd)
  (fp_text reference Q** (at 0 0) (layer F.SilkS)
    (effects (font (size 1.27 1.27) (thickness 0.254)))
  )
  (fp_text user %R (at 0 0) (layer F.Fab)
    (effects (font (size 1.27 1.27) (thickness 0.254)))
  )
  (fp_text value "SOT95P284X110-6N" (at 0 0) (layer F.SilkS) hide
    (effects (font (size 1.27 1.27) (thickness 0.254)))
  )
  (fp_line (start -2.1 -1.8) (end 2.1 -1.8) (layer F.CrtYd) (width 0.05))
  (fp_line (start 2.1 -1.8) (end 2.1 1.8) (layer F.CrtYd) (width 0.05))
  (fp_line (start 2.1 1.8) (end -2.1 1.8) (layer F.CrtYd) (width 0.05))
  (fp_line (start -2.1 1.8) (end -2.1 -1.8) (layer F.CrtYd) (width 0.05))
  (fp_line (start -0.812 -1.512) (end 0.812 -1.512) (layer F.Fab) (width 0.1))
  (fp_line (start 0.812 -1.512) (end 0.812 1.512) (layer F.Fab) (width 0.1))
  (fp_line (start 0.812 1.512) (end -0.812 1.512) (layer F.Fab) (width 0.1))
  (fp_line (start -0.812 1.512) (end -0.812 -1.512) (layer F.Fab) (width 0.1))
  (fp_line (start -0.812 -0.562) (end 0.138 -1.512) (layer F.Fab) (width 0.1))
  (fp_line (start -0.4 -1.512) (end 0.4 -1.512) (layer F.SilkS) (width 0.2))
  (fp_line (start 0.4 -1.512) (end 0.4 1.512) (layer F.SilkS) (width 0.2))
  (fp_line (start 0.4 1.512) (end -0.4 1.512) (layer F.SilkS) (width 0.2))
  (fp_line (start -0.4 1.512) (end -0.4 -1.512) (layer F.SilkS) (width 0.2))
  (fp_line (start -1.85 -1.575) (end -0.75 -1.575) (layer F.SilkS) (width 0.2))
  (pad 1 smd rect (at -1.3 -0.95 90) (size 0.55 1.1) (layers F.Cu F.Paste F.Mask))
  (pad 2 smd rect (at -1.3 0 90) (size 0.55 1.1) (layers F.Cu F.Paste F.Mask))
  (pad 3 smd rect (at -1.3 0.95 90) (size 0.55 1.1) (layers F.Cu F.Paste F.Mask))
  (pad 4 smd rect (at 1.3 0.95 90) (size 0.55 1.1) (layers F.Cu F.Paste F.Mask))
  (pad 5 smd rect (at 1.3 0 90) (size 0.55 1.1) (layers F.Cu F.Paste F.Mask))
  (pad 6 smd rect (at 1.3 -0.95 90) (size 0.55 1.1) (layers F.Cu F.Paste F.Mask))
  (model SI3460DDV-T1-GE3.stp
    (at (xyz 0 0 0))
    (scale (xyz 1 1 1))
    (rotate (xyz 0 0 0))
  )
)
