<mxfile host="app.diagrams.net" modified="2022-07-09T00:41:56.529Z" agent="5.0 (X11; Linux x86_64) AppleWebKit/537.36 (KHTML, like Gecko) Chrome/98.0.4758.80 Safari/537.36" etag="NIAtumMfAkSj-VH5tjpu" version="20.0.4" type="gitlab">
  <diagram id="9htOuAs3qBSQZSom_-qs" name="Page-1">
    <mxGraphModel dx="1650" dy="875" grid="1" gridSize="10" guides="1" tooltips="1" connect="1" arrows="1" fold="1" page="1" pageScale="1" pageWidth="3300" pageHeight="2339" math="0" shadow="0">
      <root>
        <mxCell id="0" />
        <mxCell id="1" parent="0" />
        <mxCell id="gnNwEtYykxFx5FVJzLJS-6" value="Motor Driver&lt;br&gt;Module x" style="whiteSpace=wrap;html=1;verticalAlign=bottom;fontSize=15;" parent="1" vertex="1">
          <mxGeometry x="1580" y="140" width="280" height="660" as="geometry" />
        </mxCell>
        <mxCell id="WBElHivn4JUxJaB1r0iT-1" value="Security Processor&lt;br&gt;Module 0" style="whiteSpace=wrap;html=1;verticalAlign=bottom;fontSize=15;" parent="1" vertex="1">
          <mxGeometry x="870" y="140" width="430" height="660" as="geometry" />
        </mxCell>
        <mxCell id="WBElHivn4JUxJaB1r0iT-2" value="Motor Driver&lt;br&gt;Module x" style="whiteSpace=wrap;html=1;verticalAlign=bottom;fontSize=15;" parent="1" vertex="1">
          <mxGeometry x="1300" y="140" width="280" height="660" as="geometry" />
        </mxCell>
        <mxCell id="WBElHivn4JUxJaB1r0iT-3" style="edgeStyle=orthogonalEdgeStyle;rounded=0;orthogonalLoop=1;jettySize=auto;html=1;entryX=0.5;entryY=1;entryDx=0;entryDy=0;fontSize=15;exitX=1;exitY=0.5;exitDx=0;exitDy=0;" parent="1" source="ESmMbm4nG2Flk1kOh2_p-1" target="WBElHivn4JUxJaB1r0iT-8" edge="1">
          <mxGeometry relative="1" as="geometry" />
        </mxCell>
        <mxCell id="WBElHivn4JUxJaB1r0iT-4" value="Teensy" style="rounded=0;whiteSpace=wrap;html=1;fontSize=15;fillColor=#ffe6cc;strokeColor=#d79b00;verticalAlign=bottom;fontStyle=1" parent="1" vertex="1">
          <mxGeometry x="910" y="250" width="120" height="490" as="geometry" />
        </mxCell>
        <mxCell id="WBElHivn4JUxJaB1r0iT-5" style="edgeStyle=orthogonalEdgeStyle;rounded=0;orthogonalLoop=1;jettySize=auto;html=1;entryX=0.5;entryY=1;entryDx=0;entryDy=0;fontSize=15;" parent="1" source="WBElHivn4JUxJaB1r0iT-8" target="WBElHivn4JUxJaB1r0iT-21" edge="1">
          <mxGeometry relative="1" as="geometry" />
        </mxCell>
        <mxCell id="WBElHivn4JUxJaB1r0iT-6" style="edgeStyle=orthogonalEdgeStyle;rounded=0;orthogonalLoop=1;jettySize=auto;html=1;exitX=1;exitY=0;exitDx=0;exitDy=0;entryX=0.75;entryY=0;entryDx=0;entryDy=0;fontSize=10;" parent="1" source="WBElHivn4JUxJaB1r0iT-8" target="WBElHivn4JUxJaB1r0iT-34" edge="1">
          <mxGeometry relative="1" as="geometry">
            <Array as="points">
              <mxPoint x="1192" y="575" />
            </Array>
          </mxGeometry>
        </mxCell>
        <mxCell id="WBElHivn4JUxJaB1r0iT-7" style="edgeStyle=orthogonalEdgeStyle;rounded=0;orthogonalLoop=1;jettySize=auto;html=1;exitX=1;exitY=1;exitDx=0;exitDy=0;entryX=0;entryY=0.5;entryDx=0;entryDy=0;fontSize=10;" parent="1" source="WBElHivn4JUxJaB1r0iT-8" target="WBElHivn4JUxJaB1r0iT-34" edge="1">
          <mxGeometry relative="1" as="geometry">
            <Array as="points">
              <mxPoint x="1192" y="660" />
              <mxPoint x="1260" y="660" />
            </Array>
          </mxGeometry>
        </mxCell>
        <mxCell id="WBElHivn4JUxJaB1r0iT-8" value="Level Shifter" style="ellipse;whiteSpace=wrap;html=1;fontSize=15;fillColor=#d5e8d4;strokeColor=#82b366;" parent="1" vertex="1">
          <mxGeometry x="1090" y="580" width="120" height="80" as="geometry" />
        </mxCell>
        <mxCell id="WBElHivn4JUxJaB1r0iT-16" style="edgeStyle=orthogonalEdgeStyle;rounded=0;orthogonalLoop=1;jettySize=auto;html=1;exitX=0;exitY=0.5;exitDx=0;exitDy=0;entryX=0;entryY=0.25;entryDx=0;entryDy=0;fontSize=10;" parent="1" source="WBElHivn4JUxJaB1r0iT-21" target="WBElHivn4JUxJaB1r0iT-33" edge="1">
          <mxGeometry relative="1" as="geometry">
            <Array as="points">
              <mxPoint x="1100" y="380" />
              <mxPoint x="1420" y="380" />
              <mxPoint x="1420" y="653" />
            </Array>
          </mxGeometry>
        </mxCell>
        <mxCell id="WBElHivn4JUxJaB1r0iT-36" style="edgeStyle=orthogonalEdgeStyle;rounded=0;orthogonalLoop=1;jettySize=auto;html=1;exitX=1;exitY=1;exitDx=0;exitDy=0;entryX=1;entryY=0.75;entryDx=0;entryDy=0;" parent="1" source="WBElHivn4JUxJaB1r0iT-21" target="WBElHivn4JUxJaB1r0iT-35" edge="1">
          <mxGeometry relative="1" as="geometry">
            <Array as="points">
              <mxPoint x="1240" y="531" />
              <mxPoint x="1240" y="400" />
              <mxPoint x="1320" y="400" />
              <mxPoint x="1320" y="630" />
              <mxPoint x="1338" y="630" />
            </Array>
          </mxGeometry>
        </mxCell>
        <mxCell id="gnNwEtYykxFx5FVJzLJS-37" style="edgeStyle=orthogonalEdgeStyle;rounded=0;orthogonalLoop=1;jettySize=auto;html=1;exitX=0;exitY=0.5;exitDx=0;exitDy=0;entryX=0;entryY=0.25;entryDx=0;entryDy=0;" parent="1" source="WBElHivn4JUxJaB1r0iT-21" target="gnNwEtYykxFx5FVJzLJS-16" edge="1">
          <mxGeometry relative="1" as="geometry">
            <Array as="points">
              <mxPoint x="1100" y="380" />
              <mxPoint x="1700" y="380" />
              <mxPoint x="1700" y="653" />
            </Array>
          </mxGeometry>
        </mxCell>
        <mxCell id="WBElHivn4JUxJaB1r0iT-21" value="Isolation" style="shape=parallelogram;perimeter=parallelogramPerimeter;whiteSpace=wrap;html=1;fixedSize=1;fontSize=15;fillColor=#e1d5e7;strokeColor=#9673a6;" parent="1" vertex="1">
          <mxGeometry x="1090" y="480" width="120" height="60" as="geometry" />
        </mxCell>
        <mxCell id="WBElHivn4JUxJaB1r0iT-22" value="TMC" style="rounded=1;whiteSpace=wrap;html=1;fontSize=15;fillColor=#60a917;fontColor=#ffffff;strokeColor=#2D7600;" parent="1" vertex="1">
          <mxGeometry x="1440" y="460" width="80" height="50" as="geometry" />
        </mxCell>
        <mxCell id="WBElHivn4JUxJaB1r0iT-23" style="edgeStyle=orthogonalEdgeStyle;rounded=0;orthogonalLoop=1;jettySize=auto;html=1;exitX=0;exitY=0.5;exitDx=0;exitDy=0;entryX=0;entryY=0.25;entryDx=0;entryDy=0;fontSize=15;" parent="1" source="WBElHivn4JUxJaB1r0iT-21" target="WBElHivn4JUxJaB1r0iT-22" edge="1">
          <mxGeometry relative="1" as="geometry">
            <mxPoint x="1310" y="390" as="sourcePoint" />
            <Array as="points">
              <mxPoint x="1100" y="380" />
              <mxPoint x="1420" y="380" />
              <mxPoint x="1420" y="473" />
            </Array>
          </mxGeometry>
        </mxCell>
        <mxCell id="WBElHivn4JUxJaB1r0iT-24" value="SPI&lt;br&gt;3x" style="edgeLabel;html=1;align=center;verticalAlign=middle;resizable=0;points=[];fontSize=10;" parent="WBElHivn4JUxJaB1r0iT-23" vertex="1" connectable="0">
          <mxGeometry x="-0.8791" relative="1" as="geometry">
            <mxPoint as="offset" />
          </mxGeometry>
        </mxCell>
        <mxCell id="WBElHivn4JUxJaB1r0iT-26" value="" style="edgeStyle=orthogonalEdgeStyle;rounded=0;orthogonalLoop=1;jettySize=auto;html=1;fontSize=15;exitX=1;exitY=0.5;exitDx=0;exitDy=0;" parent="1" source="WBElHivn4JUxJaB1r0iT-29" edge="1">
          <mxGeometry relative="1" as="geometry">
            <mxPoint x="1340" y="210" as="targetPoint" />
            <Array as="points">
              <mxPoint x="1550" y="725" />
              <mxPoint x="1550" y="210" />
            </Array>
          </mxGeometry>
        </mxCell>
        <mxCell id="gnNwEtYykxFx5FVJzLJS-2" style="edgeStyle=orthogonalEdgeStyle;rounded=0;orthogonalLoop=1;jettySize=auto;html=1;exitX=1;exitY=0.25;exitDx=0;exitDy=0;entryX=1;entryY=0.75;entryDx=0;entryDy=0;" parent="1" source="WBElHivn4JUxJaB1r0iT-29" target="WBElHivn4JUxJaB1r0iT-33" edge="1">
          <mxGeometry relative="1" as="geometry">
            <Array as="points">
              <mxPoint x="1540" y="712" />
              <mxPoint x="1540" y="678" />
            </Array>
          </mxGeometry>
        </mxCell>
        <mxCell id="gnNwEtYykxFx5FVJzLJS-4" value="PS Fault" style="edgeLabel;html=1;align=center;verticalAlign=middle;resizable=0;points=[];rotation=270;" parent="gnNwEtYykxFx5FVJzLJS-2" vertex="1" connectable="0">
          <mxGeometry x="-0.0978" relative="1" as="geometry">
            <mxPoint x="1" y="-4" as="offset" />
          </mxGeometry>
        </mxCell>
        <mxCell id="gnNwEtYykxFx5FVJzLJS-3" style="edgeStyle=orthogonalEdgeStyle;rounded=0;orthogonalLoop=1;jettySize=auto;html=1;exitX=1;exitY=0.75;exitDx=0;exitDy=0;entryX=1;entryY=0.25;entryDx=0;entryDy=0;startArrow=classic;startFill=1;endArrow=none;endFill=0;" parent="1" source="WBElHivn4JUxJaB1r0iT-29" target="WBElHivn4JUxJaB1r0iT-33" edge="1">
          <mxGeometry relative="1" as="geometry">
            <Array as="points">
              <mxPoint x="1570" y="737" />
              <mxPoint x="1570" y="653" />
            </Array>
          </mxGeometry>
        </mxCell>
        <mxCell id="gnNwEtYykxFx5FVJzLJS-5" value="PS Shutdown" style="edgeLabel;html=1;align=center;verticalAlign=middle;resizable=0;points=[];rotation=-90;" parent="gnNwEtYykxFx5FVJzLJS-3" vertex="1" connectable="0">
          <mxGeometry x="-0.3481" y="-1" relative="1" as="geometry">
            <mxPoint x="-2" y="-32" as="offset" />
          </mxGeometry>
        </mxCell>
        <mxCell id="WBElHivn4JUxJaB1r0iT-29" value="24V" style="rounded=1;whiteSpace=wrap;html=1;fontSize=15;fillColor=#a20025;fontColor=#ffffff;strokeColor=#6F0000;" parent="1" vertex="1">
          <mxGeometry x="1440" y="700" width="80" height="50" as="geometry" />
        </mxCell>
        <mxCell id="WBElHivn4JUxJaB1r0iT-108" style="edgeStyle=orthogonalEdgeStyle;rounded=0;orthogonalLoop=1;jettySize=auto;html=1;exitX=1;exitY=0.25;exitDx=0;exitDy=0;strokeWidth=1;" parent="1" source="WBElHivn4JUxJaB1r0iT-32" edge="1">
          <mxGeometry relative="1" as="geometry">
            <mxPoint x="1340" y="290" as="targetPoint" />
            <Array as="points">
              <mxPoint x="1540" y="593" />
              <mxPoint x="1540" y="290" />
            </Array>
          </mxGeometry>
        </mxCell>
        <mxCell id="WBElHivn4JUxJaB1r0iT-32" value="Plug Detection" style="rounded=1;whiteSpace=wrap;html=1;fontSize=15;fillColor=#60a917;fontColor=#ffffff;strokeColor=#2D7600;" parent="1" vertex="1">
          <mxGeometry x="1440" y="580" width="80" height="50" as="geometry" />
        </mxCell>
        <mxCell id="WBElHivn4JUxJaB1r0iT-33" value="GPIO" style="rounded=1;whiteSpace=wrap;html=1;fontSize=15;fillColor=#60a917;fontColor=#ffffff;strokeColor=#2D7600;" parent="1" vertex="1">
          <mxGeometry x="1440" y="640" width="80" height="50" as="geometry" />
        </mxCell>
        <mxCell id="gnNwEtYykxFx5FVJzLJS-42" style="edgeStyle=orthogonalEdgeStyle;rounded=0;orthogonalLoop=1;jettySize=auto;html=1;exitX=1;exitY=0.75;exitDx=0;exitDy=0;" parent="1" source="WBElHivn4JUxJaB1r0iT-34" edge="1">
          <mxGeometry relative="1" as="geometry">
            <mxPoint x="1297" y="344" as="targetPoint" />
            <Array as="points">
              <mxPoint x="1272" y="354" />
              <mxPoint x="1273" y="354" />
              <mxPoint x="1273" y="344" />
            </Array>
          </mxGeometry>
        </mxCell>
        <mxCell id="WBElHivn4JUxJaB1r0iT-34" value="5V Safe" style="rounded=1;whiteSpace=wrap;html=1;fontSize=15;fillColor=#a20025;fontColor=#ffffff;strokeColor=#6F0000;rotation=-90;" parent="1" vertex="1">
          <mxGeometry x="1220" y="570" width="80" height="50" as="geometry" />
        </mxCell>
        <mxCell id="WBElHivn4JUxJaB1r0iT-37" style="rounded=0;orthogonalLoop=1;jettySize=auto;html=1;exitX=0.25;exitY=0;exitDx=0;exitDy=0;entryX=0;entryY=0.75;entryDx=0;entryDy=0;" parent="1" source="WBElHivn4JUxJaB1r0iT-35" target="WBElHivn4JUxJaB1r0iT-22" edge="1">
          <mxGeometry relative="1" as="geometry" />
        </mxCell>
        <mxCell id="gnNwEtYykxFx5FVJzLJS-39" value="CS TMC" style="edgeLabel;html=1;align=center;verticalAlign=middle;resizable=0;points=[];" parent="WBElHivn4JUxJaB1r0iT-37" vertex="1" connectable="0">
          <mxGeometry x="-0.3082" y="-2" relative="1" as="geometry">
            <mxPoint as="offset" />
          </mxGeometry>
        </mxCell>
        <mxCell id="WBElHivn4JUxJaB1r0iT-39" style="rounded=0;orthogonalLoop=1;jettySize=auto;html=1;exitX=0.75;exitY=0;exitDx=0;exitDy=0;entryX=0;entryY=0.75;entryDx=0;entryDy=0;" parent="1" source="WBElHivn4JUxJaB1r0iT-35" target="WBElHivn4JUxJaB1r0iT-32" edge="1">
          <mxGeometry relative="1" as="geometry" />
        </mxCell>
        <mxCell id="WBElHivn4JUxJaB1r0iT-57" style="rounded=0;orthogonalLoop=1;jettySize=auto;html=1;exitX=1;exitY=0;exitDx=0;exitDy=0;entryX=0;entryY=0.75;entryDx=0;entryDy=0;" parent="1" source="WBElHivn4JUxJaB1r0iT-35" target="WBElHivn4JUxJaB1r0iT-33" edge="1">
          <mxGeometry relative="1" as="geometry" />
        </mxCell>
        <mxCell id="gnNwEtYykxFx5FVJzLJS-41" value="CS GPIO" style="edgeLabel;html=1;align=center;verticalAlign=middle;resizable=0;points=[];" parent="WBElHivn4JUxJaB1r0iT-57" vertex="1" connectable="0">
          <mxGeometry x="-0.5048" y="-1" relative="1" as="geometry">
            <mxPoint as="offset" />
          </mxGeometry>
        </mxCell>
        <mxCell id="gnNwEtYykxFx5FVJzLJS-38" style="edgeStyle=orthogonalEdgeStyle;rounded=0;orthogonalLoop=1;jettySize=auto;html=1;exitX=0;exitY=0.5;exitDx=0;exitDy=0;entryX=1;entryY=0.75;entryDx=0;entryDy=0;" parent="1" source="WBElHivn4JUxJaB1r0iT-35" target="gnNwEtYykxFx5FVJzLJS-20" edge="1">
          <mxGeometry relative="1" as="geometry">
            <Array as="points">
              <mxPoint x="1345" y="400" />
              <mxPoint x="1600" y="400" />
              <mxPoint x="1600" y="630" />
              <mxPoint x="1618" y="630" />
            </Array>
          </mxGeometry>
        </mxCell>
        <mxCell id="WBElHivn4JUxJaB1r0iT-35" value="shift register" style="rounded=1;whiteSpace=wrap;html=1;fontSize=15;fillColor=#60a917;fontColor=#ffffff;strokeColor=#2D7600;direction=south;horizontal=0;" parent="1" vertex="1">
          <mxGeometry x="1330" y="420" width="30" height="190" as="geometry" />
        </mxCell>
        <mxCell id="WBElHivn4JUxJaB1r0iT-98" value="" style="group" parent="1" vertex="1" connectable="0">
          <mxGeometry x="1250" y="226" width="50" height="50" as="geometry" />
        </mxCell>
        <mxCell id="WBElHivn4JUxJaB1r0iT-92" value="" style="endArrow=none;html=1;rounded=0;strokeWidth=1;" parent="WBElHivn4JUxJaB1r0iT-98" edge="1">
          <mxGeometry width="50" height="50" relative="1" as="geometry">
            <mxPoint y="50" as="sourcePoint" />
            <mxPoint x="50" y="50" as="targetPoint" />
          </mxGeometry>
        </mxCell>
        <mxCell id="WBElHivn4JUxJaB1r0iT-93" value="" style="endArrow=none;html=1;rounded=0;strokeWidth=1;" parent="WBElHivn4JUxJaB1r0iT-98" edge="1">
          <mxGeometry width="50" height="50" relative="1" as="geometry">
            <mxPoint y="40" as="sourcePoint" />
            <mxPoint x="50" y="40" as="targetPoint" />
          </mxGeometry>
        </mxCell>
        <mxCell id="WBElHivn4JUxJaB1r0iT-94" value="" style="endArrow=none;html=1;rounded=0;strokeWidth=1;" parent="WBElHivn4JUxJaB1r0iT-98" edge="1">
          <mxGeometry width="50" height="50" relative="1" as="geometry">
            <mxPoint y="30" as="sourcePoint" />
            <mxPoint x="50" y="30" as="targetPoint" />
          </mxGeometry>
        </mxCell>
        <mxCell id="WBElHivn4JUxJaB1r0iT-95" value="" style="endArrow=none;html=1;rounded=0;strokeWidth=1;" parent="WBElHivn4JUxJaB1r0iT-98" edge="1">
          <mxGeometry width="50" height="50" relative="1" as="geometry">
            <mxPoint y="20" as="sourcePoint" />
            <mxPoint x="50" y="20" as="targetPoint" />
          </mxGeometry>
        </mxCell>
        <mxCell id="WBElHivn4JUxJaB1r0iT-96" value="" style="endArrow=none;html=1;rounded=0;strokeWidth=1;" parent="WBElHivn4JUxJaB1r0iT-98" edge="1">
          <mxGeometry width="50" height="50" relative="1" as="geometry">
            <mxPoint y="10" as="sourcePoint" />
            <mxPoint x="50" y="10" as="targetPoint" />
          </mxGeometry>
        </mxCell>
        <mxCell id="WBElHivn4JUxJaB1r0iT-97" value="" style="endArrow=none;html=1;rounded=0;strokeWidth=1;" parent="WBElHivn4JUxJaB1r0iT-98" edge="1">
          <mxGeometry width="50" height="50" relative="1" as="geometry">
            <mxPoint as="sourcePoint" />
            <mxPoint x="50" as="targetPoint" />
          </mxGeometry>
        </mxCell>
        <mxCell id="WBElHivn4JUxJaB1r0iT-100" value="" style="group" parent="1" vertex="1" connectable="0">
          <mxGeometry x="1300" y="226" width="280" height="60" as="geometry" />
        </mxCell>
        <mxCell id="WBElHivn4JUxJaB1r0iT-79" value="" style="endArrow=none;html=1;rounded=0;" parent="WBElHivn4JUxJaB1r0iT-100" edge="1">
          <mxGeometry width="50" height="50" relative="1" as="geometry">
            <mxPoint x="280" y="10" as="sourcePoint" />
            <mxPoint as="targetPoint" />
          </mxGeometry>
        </mxCell>
        <mxCell id="WBElHivn4JUxJaB1r0iT-80" value="" style="endArrow=none;html=1;rounded=0;" parent="WBElHivn4JUxJaB1r0iT-100" edge="1">
          <mxGeometry width="50" height="50" relative="1" as="geometry">
            <mxPoint x="280" y="20" as="sourcePoint" />
            <mxPoint y="9.999999999999943" as="targetPoint" />
          </mxGeometry>
        </mxCell>
        <mxCell id="WBElHivn4JUxJaB1r0iT-81" value="" style="endArrow=none;html=1;rounded=0;" parent="WBElHivn4JUxJaB1r0iT-100" edge="1">
          <mxGeometry width="50" height="50" relative="1" as="geometry">
            <mxPoint x="280" y="30" as="sourcePoint" />
            <mxPoint y="19.999999999999943" as="targetPoint" />
          </mxGeometry>
        </mxCell>
        <mxCell id="WBElHivn4JUxJaB1r0iT-82" value="" style="endArrow=none;html=1;rounded=0;" parent="WBElHivn4JUxJaB1r0iT-100" edge="1">
          <mxGeometry width="50" height="50" relative="1" as="geometry">
            <mxPoint x="280" y="40" as="sourcePoint" />
            <mxPoint y="29.999999999999943" as="targetPoint" />
          </mxGeometry>
        </mxCell>
        <mxCell id="WBElHivn4JUxJaB1r0iT-83" value="" style="endArrow=none;html=1;rounded=0;" parent="WBElHivn4JUxJaB1r0iT-100" edge="1">
          <mxGeometry width="50" height="50" relative="1" as="geometry">
            <mxPoint x="280" y="50" as="sourcePoint" />
            <mxPoint y="39.99999999999994" as="targetPoint" />
          </mxGeometry>
        </mxCell>
        <mxCell id="WBElHivn4JUxJaB1r0iT-84" value="" style="endArrow=none;html=1;rounded=0;" parent="WBElHivn4JUxJaB1r0iT-100" edge="1">
          <mxGeometry width="50" height="50" relative="1" as="geometry">
            <mxPoint x="40" y="60" as="sourcePoint" />
            <mxPoint y="49.99999999999994" as="targetPoint" />
          </mxGeometry>
        </mxCell>
        <mxCell id="WBElHivn4JUxJaB1r0iT-112" value="" style="group" parent="1" vertex="1" connectable="0">
          <mxGeometry x="1300" y="146" width="280" height="60" as="geometry" />
        </mxCell>
        <mxCell id="WBElHivn4JUxJaB1r0iT-113" value="" style="endArrow=none;html=1;rounded=0;" parent="WBElHivn4JUxJaB1r0iT-112" edge="1">
          <mxGeometry width="50" height="50" relative="1" as="geometry">
            <mxPoint x="280" y="10" as="sourcePoint" />
            <mxPoint as="targetPoint" />
          </mxGeometry>
        </mxCell>
        <mxCell id="WBElHivn4JUxJaB1r0iT-114" value="" style="endArrow=none;html=1;rounded=0;" parent="WBElHivn4JUxJaB1r0iT-112" edge="1">
          <mxGeometry width="50" height="50" relative="1" as="geometry">
            <mxPoint x="280" y="20" as="sourcePoint" />
            <mxPoint y="9.999999999999943" as="targetPoint" />
          </mxGeometry>
        </mxCell>
        <mxCell id="WBElHivn4JUxJaB1r0iT-115" value="" style="endArrow=none;html=1;rounded=0;" parent="WBElHivn4JUxJaB1r0iT-112" edge="1">
          <mxGeometry width="50" height="50" relative="1" as="geometry">
            <mxPoint x="280" y="30" as="sourcePoint" />
            <mxPoint y="19.999999999999943" as="targetPoint" />
          </mxGeometry>
        </mxCell>
        <mxCell id="WBElHivn4JUxJaB1r0iT-116" value="" style="endArrow=none;html=1;rounded=0;" parent="WBElHivn4JUxJaB1r0iT-112" edge="1">
          <mxGeometry width="50" height="50" relative="1" as="geometry">
            <mxPoint x="280" y="40" as="sourcePoint" />
            <mxPoint y="29.999999999999943" as="targetPoint" />
          </mxGeometry>
        </mxCell>
        <mxCell id="WBElHivn4JUxJaB1r0iT-117" value="" style="endArrow=none;html=1;rounded=0;" parent="WBElHivn4JUxJaB1r0iT-112" edge="1">
          <mxGeometry width="50" height="50" relative="1" as="geometry">
            <mxPoint x="280" y="50" as="sourcePoint" />
            <mxPoint y="39.99999999999994" as="targetPoint" />
          </mxGeometry>
        </mxCell>
        <mxCell id="WBElHivn4JUxJaB1r0iT-118" value="" style="endArrow=none;html=1;rounded=0;" parent="WBElHivn4JUxJaB1r0iT-112" edge="1">
          <mxGeometry width="50" height="50" relative="1" as="geometry">
            <mxPoint x="40" y="60" as="sourcePoint" />
            <mxPoint y="49.99999999999994" as="targetPoint" />
          </mxGeometry>
        </mxCell>
        <mxCell id="WBElHivn4JUxJaB1r0iT-127" value="" style="group" parent="1" vertex="1" connectable="0">
          <mxGeometry x="1220" y="146" width="80" height="50" as="geometry" />
        </mxCell>
        <mxCell id="WBElHivn4JUxJaB1r0iT-128" value="" style="endArrow=none;html=1;rounded=0;strokeWidth=1;" parent="WBElHivn4JUxJaB1r0iT-127" edge="1">
          <mxGeometry width="50" height="50" relative="1" as="geometry">
            <mxPoint y="50" as="sourcePoint" />
            <mxPoint x="80" y="50" as="targetPoint" />
          </mxGeometry>
        </mxCell>
        <mxCell id="WBElHivn4JUxJaB1r0iT-129" value="" style="endArrow=none;html=1;rounded=0;strokeWidth=1;" parent="WBElHivn4JUxJaB1r0iT-127" edge="1">
          <mxGeometry width="50" height="50" relative="1" as="geometry">
            <mxPoint y="40" as="sourcePoint" />
            <mxPoint x="80" y="40" as="targetPoint" />
          </mxGeometry>
        </mxCell>
        <mxCell id="WBElHivn4JUxJaB1r0iT-130" value="" style="endArrow=none;html=1;rounded=0;strokeWidth=1;" parent="WBElHivn4JUxJaB1r0iT-127" edge="1">
          <mxGeometry width="50" height="50" relative="1" as="geometry">
            <mxPoint y="30" as="sourcePoint" />
            <mxPoint x="80" y="30" as="targetPoint" />
          </mxGeometry>
        </mxCell>
        <mxCell id="WBElHivn4JUxJaB1r0iT-131" value="" style="endArrow=none;html=1;rounded=0;strokeWidth=1;" parent="WBElHivn4JUxJaB1r0iT-127" edge="1">
          <mxGeometry width="50" height="50" relative="1" as="geometry">
            <mxPoint y="20" as="sourcePoint" />
            <mxPoint x="80" y="20" as="targetPoint" />
          </mxGeometry>
        </mxCell>
        <mxCell id="WBElHivn4JUxJaB1r0iT-132" value="" style="endArrow=none;html=1;rounded=0;strokeWidth=1;" parent="WBElHivn4JUxJaB1r0iT-127" edge="1">
          <mxGeometry width="50" height="50" relative="1" as="geometry">
            <mxPoint y="10" as="sourcePoint" />
            <mxPoint x="80" y="10" as="targetPoint" />
          </mxGeometry>
        </mxCell>
        <mxCell id="WBElHivn4JUxJaB1r0iT-133" value="" style="endArrow=none;html=1;rounded=0;strokeWidth=1;" parent="WBElHivn4JUxJaB1r0iT-127" edge="1">
          <mxGeometry width="50" height="50" relative="1" as="geometry">
            <mxPoint as="sourcePoint" />
            <mxPoint x="80" as="targetPoint" />
          </mxGeometry>
        </mxCell>
        <mxCell id="WBElHivn4JUxJaB1r0iT-141" value="" style="group" parent="1" vertex="1" connectable="0">
          <mxGeometry x="1200" y="226" width="50" height="254" as="geometry" />
        </mxCell>
        <mxCell id="WBElHivn4JUxJaB1r0iT-134" value="" style="endArrow=none;html=1;rounded=0;strokeWidth=1;exitX=1;exitY=0;exitDx=0;exitDy=0;" parent="WBElHivn4JUxJaB1r0iT-141" source="WBElHivn4JUxJaB1r0iT-21" edge="1">
          <mxGeometry width="50" height="50" relative="1" as="geometry">
            <mxPoint y="254" as="sourcePoint" />
            <mxPoint x="50" y="50" as="targetPoint" />
          </mxGeometry>
        </mxCell>
        <mxCell id="WBElHivn4JUxJaB1r0iT-135" value="" style="endArrow=none;html=1;rounded=0;strokeWidth=1;exitX=1;exitY=0;exitDx=0;exitDy=0;" parent="WBElHivn4JUxJaB1r0iT-141" edge="1">
          <mxGeometry width="50" height="50" relative="1" as="geometry">
            <mxPoint x="7.999999999999773" y="254" as="sourcePoint" />
            <mxPoint x="50" y="40" as="targetPoint" />
          </mxGeometry>
        </mxCell>
        <mxCell id="WBElHivn4JUxJaB1r0iT-136" value="" style="endArrow=none;html=1;rounded=0;strokeWidth=1;exitX=1;exitY=0;exitDx=0;exitDy=0;" parent="WBElHivn4JUxJaB1r0iT-141" edge="1">
          <mxGeometry width="50" height="50" relative="1" as="geometry">
            <mxPoint x="5.999999999999773" y="254" as="sourcePoint" />
            <mxPoint x="50" y="30" as="targetPoint" />
          </mxGeometry>
        </mxCell>
        <mxCell id="WBElHivn4JUxJaB1r0iT-137" value="" style="endArrow=none;html=1;rounded=0;strokeWidth=1;exitX=1;exitY=0;exitDx=0;exitDy=0;" parent="WBElHivn4JUxJaB1r0iT-141" edge="1">
          <mxGeometry width="50" height="50" relative="1" as="geometry">
            <mxPoint x="3.9999999999997726" y="254" as="sourcePoint" />
            <mxPoint x="50" y="20" as="targetPoint" />
          </mxGeometry>
        </mxCell>
        <mxCell id="WBElHivn4JUxJaB1r0iT-138" value="" style="endArrow=none;html=1;rounded=0;strokeWidth=1;" parent="WBElHivn4JUxJaB1r0iT-141" edge="1">
          <mxGeometry width="50" height="50" relative="1" as="geometry">
            <mxPoint x="2" y="254" as="sourcePoint" />
            <mxPoint x="50" y="10" as="targetPoint" />
          </mxGeometry>
        </mxCell>
        <mxCell id="WBElHivn4JUxJaB1r0iT-139" value="" style="endArrow=none;html=1;rounded=0;strokeWidth=1;" parent="WBElHivn4JUxJaB1r0iT-141" edge="1">
          <mxGeometry width="50" height="50" relative="1" as="geometry">
            <mxPoint y="254" as="sourcePoint" />
            <mxPoint x="50" as="targetPoint" />
          </mxGeometry>
        </mxCell>
        <mxCell id="WBElHivn4JUxJaB1r0iT-142" value="Plug Detection&lt;br&gt;6x" style="edgeLabel;html=1;align=center;verticalAlign=middle;resizable=0;points=[];rotation=-79;" parent="WBElHivn4JUxJaB1r0iT-139" vertex="1" connectable="0">
          <mxGeometry x="-0.2908" y="-1" relative="1" as="geometry">
            <mxPoint x="35" y="-60" as="offset" />
          </mxGeometry>
        </mxCell>
        <mxCell id="gnNwEtYykxFx5FVJzLJS-1" value="" style="group" parent="1" vertex="1" connectable="0">
          <mxGeometry x="1170" y="146" width="50" height="334" as="geometry" />
        </mxCell>
        <mxCell id="WBElHivn4JUxJaB1r0iT-148" value="" style="endArrow=none;html=1;rounded=0;strokeWidth=1;" parent="gnNwEtYykxFx5FVJzLJS-1" edge="1">
          <mxGeometry width="50" height="50" relative="1" as="geometry">
            <mxPoint x="2" y="334" as="sourcePoint" />
            <mxPoint x="50" y="10" as="targetPoint" />
          </mxGeometry>
        </mxCell>
        <mxCell id="WBElHivn4JUxJaB1r0iT-149" value="" style="endArrow=none;html=1;rounded=0;strokeWidth=1;" parent="gnNwEtYykxFx5FVJzLJS-1" edge="1">
          <mxGeometry width="50" height="50" relative="1" as="geometry">
            <mxPoint y="334" as="sourcePoint" />
            <mxPoint x="50" as="targetPoint" />
          </mxGeometry>
        </mxCell>
        <mxCell id="WBElHivn4JUxJaB1r0iT-144" value="" style="endArrow=none;html=1;rounded=0;strokeWidth=1;" parent="gnNwEtYykxFx5FVJzLJS-1" edge="1">
          <mxGeometry width="50" height="50" relative="1" as="geometry">
            <mxPoint x="10" y="334" as="sourcePoint" />
            <mxPoint x="50" y="50" as="targetPoint" />
          </mxGeometry>
        </mxCell>
        <mxCell id="WBElHivn4JUxJaB1r0iT-145" value="" style="endArrow=none;html=1;rounded=0;strokeWidth=1;exitX=1;exitY=0;exitDx=0;exitDy=0;" parent="gnNwEtYykxFx5FVJzLJS-1" edge="1">
          <mxGeometry width="50" height="50" relative="1" as="geometry">
            <mxPoint x="7.999999999999773" y="334" as="sourcePoint" />
            <mxPoint x="50" y="40" as="targetPoint" />
          </mxGeometry>
        </mxCell>
        <mxCell id="WBElHivn4JUxJaB1r0iT-146" value="" style="endArrow=none;html=1;rounded=0;strokeWidth=1;exitX=1;exitY=0;exitDx=0;exitDy=0;" parent="gnNwEtYykxFx5FVJzLJS-1" edge="1">
          <mxGeometry width="50" height="50" relative="1" as="geometry">
            <mxPoint x="5.999999999999773" y="334" as="sourcePoint" />
            <mxPoint x="50" y="30" as="targetPoint" />
          </mxGeometry>
        </mxCell>
        <mxCell id="WBElHivn4JUxJaB1r0iT-147" value="" style="endArrow=none;html=1;rounded=0;strokeWidth=1;exitX=1;exitY=0;exitDx=0;exitDy=0;" parent="gnNwEtYykxFx5FVJzLJS-1" edge="1">
          <mxGeometry width="50" height="50" relative="1" as="geometry">
            <mxPoint x="3.9999999999997726" y="334" as="sourcePoint" />
            <mxPoint x="50" y="20" as="targetPoint" />
          </mxGeometry>
        </mxCell>
        <mxCell id="WBElHivn4JUxJaB1r0iT-152" value="24V Sense&lt;br&gt;6x" style="edgeLabel;html=1;align=center;verticalAlign=middle;resizable=0;points=[];rotation=-81.1;" parent="WBElHivn4JUxJaB1r0iT-147" vertex="1" connectable="0">
          <mxGeometry x="-0.5421" y="-1" relative="1" as="geometry">
            <mxPoint x="11" y="-204" as="offset" />
          </mxGeometry>
        </mxCell>
        <mxCell id="gnNwEtYykxFx5FVJzLJS-7" value="TMC" style="rounded=1;whiteSpace=wrap;html=1;fontSize=15;fillColor=#60a917;fontColor=#ffffff;strokeColor=#2D7600;" parent="1" vertex="1">
          <mxGeometry x="1720" y="460" width="80" height="50" as="geometry" />
        </mxCell>
        <mxCell id="gnNwEtYykxFx5FVJzLJS-8" value="" style="edgeStyle=orthogonalEdgeStyle;rounded=0;orthogonalLoop=1;jettySize=auto;html=1;fontSize=15;exitX=1;exitY=0.5;exitDx=0;exitDy=0;" parent="1" source="gnNwEtYykxFx5FVJzLJS-13" edge="1">
          <mxGeometry relative="1" as="geometry">
            <mxPoint x="1620" y="210" as="targetPoint" />
            <Array as="points">
              <mxPoint x="1830" y="725" />
              <mxPoint x="1830" y="210" />
            </Array>
          </mxGeometry>
        </mxCell>
        <mxCell id="gnNwEtYykxFx5FVJzLJS-9" style="edgeStyle=orthogonalEdgeStyle;rounded=0;orthogonalLoop=1;jettySize=auto;html=1;exitX=1;exitY=0.25;exitDx=0;exitDy=0;entryX=1;entryY=0.75;entryDx=0;entryDy=0;" parent="1" source="gnNwEtYykxFx5FVJzLJS-13" target="gnNwEtYykxFx5FVJzLJS-16" edge="1">
          <mxGeometry relative="1" as="geometry">
            <Array as="points">
              <mxPoint x="1820" y="712" />
              <mxPoint x="1820" y="678" />
            </Array>
          </mxGeometry>
        </mxCell>
        <mxCell id="gnNwEtYykxFx5FVJzLJS-10" value="PS Fault" style="edgeLabel;html=1;align=center;verticalAlign=middle;resizable=0;points=[];rotation=270;" parent="gnNwEtYykxFx5FVJzLJS-9" vertex="1" connectable="0">
          <mxGeometry x="-0.0978" relative="1" as="geometry">
            <mxPoint x="1" y="-4" as="offset" />
          </mxGeometry>
        </mxCell>
        <mxCell id="gnNwEtYykxFx5FVJzLJS-11" style="edgeStyle=orthogonalEdgeStyle;rounded=0;orthogonalLoop=1;jettySize=auto;html=1;exitX=1;exitY=0.75;exitDx=0;exitDy=0;entryX=1;entryY=0.25;entryDx=0;entryDy=0;startArrow=classic;startFill=1;endArrow=none;endFill=0;" parent="1" source="gnNwEtYykxFx5FVJzLJS-13" target="gnNwEtYykxFx5FVJzLJS-16" edge="1">
          <mxGeometry relative="1" as="geometry">
            <Array as="points">
              <mxPoint x="1850" y="737" />
              <mxPoint x="1850" y="653" />
            </Array>
          </mxGeometry>
        </mxCell>
        <mxCell id="gnNwEtYykxFx5FVJzLJS-12" value="PS Shutdown" style="edgeLabel;html=1;align=center;verticalAlign=middle;resizable=0;points=[];rotation=-90;" parent="gnNwEtYykxFx5FVJzLJS-11" vertex="1" connectable="0">
          <mxGeometry x="-0.3481" y="-1" relative="1" as="geometry">
            <mxPoint x="-2" y="-32" as="offset" />
          </mxGeometry>
        </mxCell>
        <mxCell id="gnNwEtYykxFx5FVJzLJS-13" value="24V" style="rounded=1;whiteSpace=wrap;html=1;fontSize=15;fillColor=#a20025;fontColor=#ffffff;strokeColor=#6F0000;" parent="1" vertex="1">
          <mxGeometry x="1720" y="700" width="80" height="50" as="geometry" />
        </mxCell>
        <mxCell id="gnNwEtYykxFx5FVJzLJS-14" style="edgeStyle=orthogonalEdgeStyle;rounded=0;orthogonalLoop=1;jettySize=auto;html=1;exitX=1;exitY=0.25;exitDx=0;exitDy=0;strokeWidth=1;" parent="1" source="gnNwEtYykxFx5FVJzLJS-15" edge="1">
          <mxGeometry relative="1" as="geometry">
            <mxPoint x="1620" y="290" as="targetPoint" />
            <Array as="points">
              <mxPoint x="1820" y="593" />
              <mxPoint x="1820" y="290" />
            </Array>
          </mxGeometry>
        </mxCell>
        <mxCell id="gnNwEtYykxFx5FVJzLJS-15" value="Plug Detection" style="rounded=1;whiteSpace=wrap;html=1;fontSize=15;fillColor=#60a917;fontColor=#ffffff;strokeColor=#2D7600;" parent="1" vertex="1">
          <mxGeometry x="1720" y="580" width="80" height="50" as="geometry" />
        </mxCell>
        <mxCell id="gnNwEtYykxFx5FVJzLJS-16" value="GPIO" style="rounded=1;whiteSpace=wrap;html=1;fontSize=15;fillColor=#60a917;fontColor=#ffffff;strokeColor=#2D7600;" parent="1" vertex="1">
          <mxGeometry x="1720" y="640" width="80" height="50" as="geometry" />
        </mxCell>
        <mxCell id="gnNwEtYykxFx5FVJzLJS-17" style="rounded=0;orthogonalLoop=1;jettySize=auto;html=1;exitX=0.25;exitY=0;exitDx=0;exitDy=0;entryX=0;entryY=0.75;entryDx=0;entryDy=0;" parent="1" source="gnNwEtYykxFx5FVJzLJS-20" target="gnNwEtYykxFx5FVJzLJS-7" edge="1">
          <mxGeometry relative="1" as="geometry" />
        </mxCell>
        <mxCell id="gnNwEtYykxFx5FVJzLJS-18" style="rounded=0;orthogonalLoop=1;jettySize=auto;html=1;exitX=0.75;exitY=0;exitDx=0;exitDy=0;entryX=0;entryY=0.75;entryDx=0;entryDy=0;" parent="1" source="gnNwEtYykxFx5FVJzLJS-20" target="gnNwEtYykxFx5FVJzLJS-15" edge="1">
          <mxGeometry relative="1" as="geometry" />
        </mxCell>
        <mxCell id="gnNwEtYykxFx5FVJzLJS-19" style="rounded=0;orthogonalLoop=1;jettySize=auto;html=1;exitX=1;exitY=0;exitDx=0;exitDy=0;entryX=0;entryY=0.75;entryDx=0;entryDy=0;" parent="1" source="gnNwEtYykxFx5FVJzLJS-20" target="gnNwEtYykxFx5FVJzLJS-16" edge="1">
          <mxGeometry relative="1" as="geometry" />
        </mxCell>
        <mxCell id="gnNwEtYykxFx5FVJzLJS-20" value="shift register" style="rounded=1;whiteSpace=wrap;html=1;fontSize=15;fillColor=#60a917;fontColor=#ffffff;strokeColor=#2D7600;direction=south;horizontal=0;" parent="1" vertex="1">
          <mxGeometry x="1610" y="420" width="30" height="190" as="geometry" />
        </mxCell>
        <mxCell id="gnNwEtYykxFx5FVJzLJS-21" value="" style="group" parent="1" vertex="1" connectable="0">
          <mxGeometry x="1580" y="226" width="280" height="60" as="geometry" />
        </mxCell>
        <mxCell id="gnNwEtYykxFx5FVJzLJS-22" value="" style="endArrow=none;html=1;rounded=0;" parent="gnNwEtYykxFx5FVJzLJS-21" edge="1">
          <mxGeometry width="50" height="50" relative="1" as="geometry">
            <mxPoint x="280" y="10" as="sourcePoint" />
            <mxPoint as="targetPoint" />
          </mxGeometry>
        </mxCell>
        <mxCell id="gnNwEtYykxFx5FVJzLJS-23" value="" style="endArrow=none;html=1;rounded=0;" parent="gnNwEtYykxFx5FVJzLJS-21" edge="1">
          <mxGeometry width="50" height="50" relative="1" as="geometry">
            <mxPoint x="280" y="20" as="sourcePoint" />
            <mxPoint y="9.999999999999943" as="targetPoint" />
          </mxGeometry>
        </mxCell>
        <mxCell id="gnNwEtYykxFx5FVJzLJS-24" value="" style="endArrow=none;html=1;rounded=0;" parent="gnNwEtYykxFx5FVJzLJS-21" edge="1">
          <mxGeometry width="50" height="50" relative="1" as="geometry">
            <mxPoint x="280" y="30" as="sourcePoint" />
            <mxPoint y="19.999999999999943" as="targetPoint" />
          </mxGeometry>
        </mxCell>
        <mxCell id="gnNwEtYykxFx5FVJzLJS-25" value="" style="endArrow=none;html=1;rounded=0;" parent="gnNwEtYykxFx5FVJzLJS-21" edge="1">
          <mxGeometry width="50" height="50" relative="1" as="geometry">
            <mxPoint x="280" y="40" as="sourcePoint" />
            <mxPoint y="29.999999999999943" as="targetPoint" />
          </mxGeometry>
        </mxCell>
        <mxCell id="gnNwEtYykxFx5FVJzLJS-26" value="" style="endArrow=none;html=1;rounded=0;" parent="gnNwEtYykxFx5FVJzLJS-21" edge="1">
          <mxGeometry width="50" height="50" relative="1" as="geometry">
            <mxPoint x="280" y="50" as="sourcePoint" />
            <mxPoint y="39.99999999999994" as="targetPoint" />
          </mxGeometry>
        </mxCell>
        <mxCell id="gnNwEtYykxFx5FVJzLJS-27" value="" style="endArrow=none;html=1;rounded=0;" parent="gnNwEtYykxFx5FVJzLJS-21" edge="1">
          <mxGeometry width="50" height="50" relative="1" as="geometry">
            <mxPoint x="40" y="60" as="sourcePoint" />
            <mxPoint y="49.99999999999994" as="targetPoint" />
          </mxGeometry>
        </mxCell>
        <mxCell id="gnNwEtYykxFx5FVJzLJS-28" value="" style="group" parent="1" vertex="1" connectable="0">
          <mxGeometry x="1580" y="146" width="280" height="60" as="geometry" />
        </mxCell>
        <mxCell id="gnNwEtYykxFx5FVJzLJS-29" value="" style="endArrow=none;html=1;rounded=0;" parent="gnNwEtYykxFx5FVJzLJS-28" edge="1">
          <mxGeometry width="50" height="50" relative="1" as="geometry">
            <mxPoint x="280" y="10" as="sourcePoint" />
            <mxPoint as="targetPoint" />
          </mxGeometry>
        </mxCell>
        <mxCell id="gnNwEtYykxFx5FVJzLJS-30" value="" style="endArrow=none;html=1;rounded=0;" parent="gnNwEtYykxFx5FVJzLJS-28" edge="1">
          <mxGeometry width="50" height="50" relative="1" as="geometry">
            <mxPoint x="280" y="20" as="sourcePoint" />
            <mxPoint y="9.999999999999943" as="targetPoint" />
          </mxGeometry>
        </mxCell>
        <mxCell id="gnNwEtYykxFx5FVJzLJS-31" value="" style="endArrow=none;html=1;rounded=0;" parent="gnNwEtYykxFx5FVJzLJS-28" edge="1">
          <mxGeometry width="50" height="50" relative="1" as="geometry">
            <mxPoint x="280" y="30" as="sourcePoint" />
            <mxPoint y="19.999999999999943" as="targetPoint" />
          </mxGeometry>
        </mxCell>
        <mxCell id="gnNwEtYykxFx5FVJzLJS-32" value="" style="endArrow=none;html=1;rounded=0;" parent="gnNwEtYykxFx5FVJzLJS-28" edge="1">
          <mxGeometry width="50" height="50" relative="1" as="geometry">
            <mxPoint x="280" y="40" as="sourcePoint" />
            <mxPoint y="29.999999999999943" as="targetPoint" />
          </mxGeometry>
        </mxCell>
        <mxCell id="gnNwEtYykxFx5FVJzLJS-33" value="" style="endArrow=none;html=1;rounded=0;" parent="gnNwEtYykxFx5FVJzLJS-28" edge="1">
          <mxGeometry width="50" height="50" relative="1" as="geometry">
            <mxPoint x="280" y="50" as="sourcePoint" />
            <mxPoint y="39.99999999999994" as="targetPoint" />
          </mxGeometry>
        </mxCell>
        <mxCell id="gnNwEtYykxFx5FVJzLJS-34" value="" style="endArrow=none;html=1;rounded=0;" parent="gnNwEtYykxFx5FVJzLJS-28" edge="1">
          <mxGeometry width="50" height="50" relative="1" as="geometry">
            <mxPoint x="40" y="60" as="sourcePoint" />
            <mxPoint y="49.99999999999994" as="targetPoint" />
          </mxGeometry>
        </mxCell>
        <mxCell id="gnNwEtYykxFx5FVJzLJS-35" style="edgeStyle=orthogonalEdgeStyle;rounded=0;orthogonalLoop=1;jettySize=auto;html=1;exitX=0;exitY=0.5;exitDx=0;exitDy=0;entryX=0;entryY=0.25;entryDx=0;entryDy=0;" parent="1" source="WBElHivn4JUxJaB1r0iT-21" target="gnNwEtYykxFx5FVJzLJS-7" edge="1">
          <mxGeometry relative="1" as="geometry">
            <Array as="points">
              <mxPoint x="1100" y="380" />
              <mxPoint x="1700" y="380" />
              <mxPoint x="1700" y="473" />
            </Array>
          </mxGeometry>
        </mxCell>
        <mxCell id="gnNwEtYykxFx5FVJzLJS-43" value="" style="endArrow=classic;html=1;rounded=0;" parent="1" edge="1">
          <mxGeometry width="50" height="50" relative="1" as="geometry">
            <mxPoint x="1299" y="344" as="sourcePoint" />
            <mxPoint x="1579" y="344" as="targetPoint" />
          </mxGeometry>
        </mxCell>
        <mxCell id="gnNwEtYykxFx5FVJzLJS-44" value="" style="endArrow=classic;html=1;rounded=0;" parent="1" edge="1">
          <mxGeometry width="50" height="50" relative="1" as="geometry">
            <mxPoint x="1580" y="344" as="sourcePoint" />
            <mxPoint x="1860" y="344" as="targetPoint" />
          </mxGeometry>
        </mxCell>
        <mxCell id="ESmMbm4nG2Flk1kOh2_p-1" value="SPI &amp;amp; &lt;br&gt;Shift Register" style="rounded=1;whiteSpace=wrap;html=1;fontSize=15;fillColor=#a20025;fontColor=#ffffff;strokeColor=#6F0000;rotation=0;" vertex="1" parent="1">
          <mxGeometry x="930" y="640" width="100" height="50" as="geometry" />
        </mxCell>
        <mxCell id="ESmMbm4nG2Flk1kOh2_p-4" style="edgeStyle=orthogonalEdgeStyle;rounded=0;orthogonalLoop=1;jettySize=auto;html=1;exitX=0;exitY=0.5;exitDx=0;exitDy=0;entryX=1;entryY=0.75;entryDx=0;entryDy=0;" edge="1" parent="1" source="ESmMbm4nG2Flk1kOh2_p-2" target="ESmMbm4nG2Flk1kOh2_p-3">
          <mxGeometry relative="1" as="geometry" />
        </mxCell>
        <mxCell id="ESmMbm4nG2Flk1kOh2_p-2" value="MESA Softserial" style="rounded=1;whiteSpace=wrap;html=1;fontSize=15;fillColor=#dae8fc;strokeColor=#6c8ebf;rotation=0;" vertex="1" parent="1">
          <mxGeometry x="910" y="276" width="100" height="50" as="geometry" />
        </mxCell>
        <mxCell id="ESmMbm4nG2Flk1kOh2_p-9" style="edgeStyle=orthogonalEdgeStyle;rounded=0;orthogonalLoop=1;jettySize=auto;html=1;exitX=0.75;exitY=1;exitDx=0;exitDy=0;entryX=0.5;entryY=1;entryDx=0;entryDy=0;fontSize=14;" edge="1" parent="1" source="ESmMbm4nG2Flk1kOh2_p-3" target="ESmMbm4nG2Flk1kOh2_p-8">
          <mxGeometry relative="1" as="geometry">
            <Array as="points">
              <mxPoint x="615" y="310" />
              <mxPoint x="615" y="900" />
              <mxPoint x="1345" y="900" />
            </Array>
          </mxGeometry>
        </mxCell>
        <mxCell id="ESmMbm4nG2Flk1kOh2_p-11" style="edgeStyle=orthogonalEdgeStyle;rounded=0;orthogonalLoop=1;jettySize=auto;html=1;exitX=0.5;exitY=1;exitDx=0;exitDy=0;entryX=0.5;entryY=1;entryDx=0;entryDy=0;fontSize=14;" edge="1" parent="1" source="ESmMbm4nG2Flk1kOh2_p-3" target="ESmMbm4nG2Flk1kOh2_p-10">
          <mxGeometry relative="1" as="geometry">
            <Array as="points">
              <mxPoint x="585" y="930" />
              <mxPoint x="1625" y="930" />
            </Array>
          </mxGeometry>
        </mxCell>
        <mxCell id="ESmMbm4nG2Flk1kOh2_p-3" value="MESA" style="rounded=0;whiteSpace=wrap;html=1;fontSize=15;fillColor=#ffe6cc;strokeColor=#d79b00;verticalAlign=bottom;fontStyle=1" vertex="1" parent="1">
          <mxGeometry x="520" y="190" width="130" height="120" as="geometry" />
        </mxCell>
        <mxCell id="ESmMbm4nG2Flk1kOh2_p-5" value="HMI" style="rounded=1;whiteSpace=wrap;html=1;fontSize=15;fillColor=#d5e8d4;strokeColor=#82b366;rotation=0;" vertex="1" parent="1">
          <mxGeometry x="910" y="480" width="100" height="50" as="geometry" />
        </mxCell>
        <mxCell id="ESmMbm4nG2Flk1kOh2_p-6" value="Diagnose PC" style="rounded=1;whiteSpace=wrap;html=1;fontSize=15;fillColor=#d5e8d4;strokeColor=#82b366;rotation=0;" vertex="1" parent="1">
          <mxGeometry x="910" y="550" width="100" height="50" as="geometry" />
        </mxCell>
        <mxCell id="ESmMbm4nG2Flk1kOh2_p-8" value="Step &amp;amp;&lt;br style=&quot;font-size: 14px;&quot;&gt;&amp;nbsp;Dir" style="whiteSpace=wrap;html=1;aspect=fixed;fontSize=14;fontStyle=0;fillColor=#e1d5e7;strokeColor=#9673a6;" vertex="1" parent="1">
          <mxGeometry x="1305" y="720" width="80" height="80" as="geometry" />
        </mxCell>
        <mxCell id="ESmMbm4nG2Flk1kOh2_p-10" value="Step &amp;amp;&lt;br style=&quot;font-size: 14px;&quot;&gt;&amp;nbsp;Dir" style="whiteSpace=wrap;html=1;aspect=fixed;fontSize=14;fontStyle=0;fillColor=#e1d5e7;strokeColor=#9673a6;" vertex="1" parent="1">
          <mxGeometry x="1585" y="720" width="80" height="80" as="geometry" />
        </mxCell>
      </root>
    </mxGraphModel>
  </diagram>
</mxfile>
