(kicad_sch (version 20211123) (generator eeschema)

  (uuid b0839107-6598-42a6-ba8d-f5606085249b)

  (paper "A4")

  (lib_symbols
    (symbol "BoBv2:ISO6761QDWRQ1" (pin_names (offset 0.762)) (in_bom yes) (on_board yes)
      (property "Reference" "IC" (id 0) (at 24.13 7.62 0)
        (effects (font (size 1.27 1.27)) (justify left))
      )
      (property "Value" "ISO6761QDWRQ1" (id 1) (at 24.13 5.08 0)
        (effects (font (size 1.27 1.27)) (justify left))
      )
      (property "Footprint" "SOIC127P1030X265-16N" (id 2) (at 24.13 2.54 0)
        (effects (font (size 1.27 1.27)) (justify left) hide)
      )
      (property "Datasheet" "https://www.ti.com/lit/ds/symlink/iso6763-q1.pdf" (id 3) (at 24.13 0 0)
        (effects (font (size 1.27 1.27)) (justify left) hide)
      )
      (property "Description" "General-Purpose Six-Channel Automotive Reinforced Digital Isolators with Robust EMC" (id 4) (at 24.13 -2.54 0)
        (effects (font (size 1.27 1.27)) (justify left) hide)
      )
      (property "Height" "2.65" (id 5) (at 24.13 -5.08 0)
        (effects (font (size 1.27 1.27)) (justify left) hide)
      )
      (property "Manufacturer_Name" "Texas Instruments" (id 6) (at 24.13 -7.62 0)
        (effects (font (size 1.27 1.27)) (justify left) hide)
      )
      (property "Manufacturer_Part_Number" "ISO6761QDWRQ1" (id 7) (at 24.13 -10.16 0)
        (effects (font (size 1.27 1.27)) (justify left) hide)
      )
      (property "Mouser Part Number" "595-ISO6761QDWRQ1" (id 8) (at 24.13 -12.7 0)
        (effects (font (size 1.27 1.27)) (justify left) hide)
      )
      (property "Mouser Price/Stock" "https://www.mouser.co.uk/ProductDetail/Texas-Instruments/ISO6761QDWRQ1?qs=doiCPypUmgGpegZi362Uow%3D%3D" (id 9) (at 24.13 -15.24 0)
        (effects (font (size 1.27 1.27)) (justify left) hide)
      )
      (property "Arrow Part Number" "" (id 10) (at 24.13 -17.78 0)
        (effects (font (size 1.27 1.27)) (justify left) hide)
      )
      (property "Arrow Price/Stock" "" (id 11) (at 24.13 -20.32 0)
        (effects (font (size 1.27 1.27)) (justify left) hide)
      )
      (property "ki_description" "General-Purpose Six-Channel Automotive Reinforced Digital Isolators with Robust EMC" (id 12) (at 0 0 0)
        (effects (font (size 1.27 1.27)) hide)
      )
      (symbol "ISO6761QDWRQ1_0_0"
        (pin passive line (at 0 0 0) (length 5.08)
          (name "VCC1" (effects (font (size 1.27 1.27))))
          (number "1" (effects (font (size 1.27 1.27))))
        )
        (pin passive line (at 27.94 -15.24 180) (length 5.08)
          (name "INF" (effects (font (size 1.27 1.27))))
          (number "10" (effects (font (size 1.27 1.27))))
        )
        (pin passive line (at 27.94 -12.7 180) (length 5.08)
          (name "OUTE" (effects (font (size 1.27 1.27))))
          (number "11" (effects (font (size 1.27 1.27))))
        )
        (pin passive line (at 27.94 -10.16 180) (length 5.08)
          (name "OUTD" (effects (font (size 1.27 1.27))))
          (number "12" (effects (font (size 1.27 1.27))))
        )
        (pin passive line (at 27.94 -7.62 180) (length 5.08)
          (name "OUTC" (effects (font (size 1.27 1.27))))
          (number "13" (effects (font (size 1.27 1.27))))
        )
        (pin passive line (at 27.94 -5.08 180) (length 5.08)
          (name "OUTB" (effects (font (size 1.27 1.27))))
          (number "14" (effects (font (size 1.27 1.27))))
        )
        (pin passive line (at 27.94 -2.54 180) (length 5.08)
          (name "OUTA" (effects (font (size 1.27 1.27))))
          (number "15" (effects (font (size 1.27 1.27))))
        )
        (pin passive line (at 27.94 0 180) (length 5.08)
          (name "VCC2" (effects (font (size 1.27 1.27))))
          (number "16" (effects (font (size 1.27 1.27))))
        )
        (pin passive line (at 0 -2.54 0) (length 5.08)
          (name "INA" (effects (font (size 1.27 1.27))))
          (number "2" (effects (font (size 1.27 1.27))))
        )
        (pin passive line (at 0 -5.08 0) (length 5.08)
          (name "INB" (effects (font (size 1.27 1.27))))
          (number "3" (effects (font (size 1.27 1.27))))
        )
        (pin passive line (at 0 -7.62 0) (length 5.08)
          (name "INC" (effects (font (size 1.27 1.27))))
          (number "4" (effects (font (size 1.27 1.27))))
        )
        (pin passive line (at 0 -10.16 0) (length 5.08)
          (name "IND" (effects (font (size 1.27 1.27))))
          (number "5" (effects (font (size 1.27 1.27))))
        )
        (pin passive line (at 0 -12.7 0) (length 5.08)
          (name "INE" (effects (font (size 1.27 1.27))))
          (number "6" (effects (font (size 1.27 1.27))))
        )
        (pin passive line (at 0 -15.24 0) (length 5.08)
          (name "OUTF" (effects (font (size 1.27 1.27))))
          (number "7" (effects (font (size 1.27 1.27))))
        )
        (pin passive line (at 0 -17.78 0) (length 5.08)
          (name "GND1" (effects (font (size 1.27 1.27))))
          (number "8" (effects (font (size 1.27 1.27))))
        )
        (pin passive line (at 27.94 -17.78 180) (length 5.08)
          (name "GND2" (effects (font (size 1.27 1.27))))
          (number "9" (effects (font (size 1.27 1.27))))
        )
      )
      (symbol "ISO6761QDWRQ1_0_1"
        (polyline
          (pts
            (xy 5.08 2.54)
            (xy 22.86 2.54)
            (xy 22.86 -20.32)
            (xy 5.08 -20.32)
            (xy 5.08 2.54)
          )
          (stroke (width 0.1524) (type default) (color 0 0 0 0))
          (fill (type none))
        )
      )
    )
    (symbol "Connector_Generic:Conn_02x20_Odd_Even" (pin_names (offset 1.016) hide) (in_bom yes) (on_board yes)
      (property "Reference" "J" (id 0) (at 1.27 25.4 0)
        (effects (font (size 1.27 1.27)))
      )
      (property "Value" "Conn_02x20_Odd_Even" (id 1) (at 1.27 -27.94 0)
        (effects (font (size 1.27 1.27)))
      )
      (property "Footprint" "" (id 2) (at 0 0 0)
        (effects (font (size 1.27 1.27)) hide)
      )
      (property "Datasheet" "~" (id 3) (at 0 0 0)
        (effects (font (size 1.27 1.27)) hide)
      )
      (property "ki_keywords" "connector" (id 4) (at 0 0 0)
        (effects (font (size 1.27 1.27)) hide)
      )
      (property "ki_description" "Generic connector, double row, 02x20, odd/even pin numbering scheme (row 1 odd numbers, row 2 even numbers), script generated (kicad-library-utils/schlib/autogen/connector/)" (id 5) (at 0 0 0)
        (effects (font (size 1.27 1.27)) hide)
      )
      (property "ki_fp_filters" "Connector*:*_2x??_*" (id 6) (at 0 0 0)
        (effects (font (size 1.27 1.27)) hide)
      )
      (symbol "Conn_02x20_Odd_Even_1_1"
        (rectangle (start -1.27 -25.273) (end 0 -25.527)
          (stroke (width 0.1524) (type default) (color 0 0 0 0))
          (fill (type none))
        )
        (rectangle (start -1.27 -22.733) (end 0 -22.987)
          (stroke (width 0.1524) (type default) (color 0 0 0 0))
          (fill (type none))
        )
        (rectangle (start -1.27 -20.193) (end 0 -20.447)
          (stroke (width 0.1524) (type default) (color 0 0 0 0))
          (fill (type none))
        )
        (rectangle (start -1.27 -17.653) (end 0 -17.907)
          (stroke (width 0.1524) (type default) (color 0 0 0 0))
          (fill (type none))
        )
        (rectangle (start -1.27 -15.113) (end 0 -15.367)
          (stroke (width 0.1524) (type default) (color 0 0 0 0))
          (fill (type none))
        )
        (rectangle (start -1.27 -12.573) (end 0 -12.827)
          (stroke (width 0.1524) (type default) (color 0 0 0 0))
          (fill (type none))
        )
        (rectangle (start -1.27 -10.033) (end 0 -10.287)
          (stroke (width 0.1524) (type default) (color 0 0 0 0))
          (fill (type none))
        )
        (rectangle (start -1.27 -7.493) (end 0 -7.747)
          (stroke (width 0.1524) (type default) (color 0 0 0 0))
          (fill (type none))
        )
        (rectangle (start -1.27 -4.953) (end 0 -5.207)
          (stroke (width 0.1524) (type default) (color 0 0 0 0))
          (fill (type none))
        )
        (rectangle (start -1.27 -2.413) (end 0 -2.667)
          (stroke (width 0.1524) (type default) (color 0 0 0 0))
          (fill (type none))
        )
        (rectangle (start -1.27 0.127) (end 0 -0.127)
          (stroke (width 0.1524) (type default) (color 0 0 0 0))
          (fill (type none))
        )
        (rectangle (start -1.27 2.667) (end 0 2.413)
          (stroke (width 0.1524) (type default) (color 0 0 0 0))
          (fill (type none))
        )
        (rectangle (start -1.27 5.207) (end 0 4.953)
          (stroke (width 0.1524) (type default) (color 0 0 0 0))
          (fill (type none))
        )
        (rectangle (start -1.27 7.747) (end 0 7.493)
          (stroke (width 0.1524) (type default) (color 0 0 0 0))
          (fill (type none))
        )
        (rectangle (start -1.27 10.287) (end 0 10.033)
          (stroke (width 0.1524) (type default) (color 0 0 0 0))
          (fill (type none))
        )
        (rectangle (start -1.27 12.827) (end 0 12.573)
          (stroke (width 0.1524) (type default) (color 0 0 0 0))
          (fill (type none))
        )
        (rectangle (start -1.27 15.367) (end 0 15.113)
          (stroke (width 0.1524) (type default) (color 0 0 0 0))
          (fill (type none))
        )
        (rectangle (start -1.27 17.907) (end 0 17.653)
          (stroke (width 0.1524) (type default) (color 0 0 0 0))
          (fill (type none))
        )
        (rectangle (start -1.27 20.447) (end 0 20.193)
          (stroke (width 0.1524) (type default) (color 0 0 0 0))
          (fill (type none))
        )
        (rectangle (start -1.27 22.987) (end 0 22.733)
          (stroke (width 0.1524) (type default) (color 0 0 0 0))
          (fill (type none))
        )
        (rectangle (start -1.27 24.13) (end 3.81 -26.67)
          (stroke (width 0.254) (type default) (color 0 0 0 0))
          (fill (type background))
        )
        (rectangle (start 3.81 -25.273) (end 2.54 -25.527)
          (stroke (width 0.1524) (type default) (color 0 0 0 0))
          (fill (type none))
        )
        (rectangle (start 3.81 -22.733) (end 2.54 -22.987)
          (stroke (width 0.1524) (type default) (color 0 0 0 0))
          (fill (type none))
        )
        (rectangle (start 3.81 -20.193) (end 2.54 -20.447)
          (stroke (width 0.1524) (type default) (color 0 0 0 0))
          (fill (type none))
        )
        (rectangle (start 3.81 -17.653) (end 2.54 -17.907)
          (stroke (width 0.1524) (type default) (color 0 0 0 0))
          (fill (type none))
        )
        (rectangle (start 3.81 -15.113) (end 2.54 -15.367)
          (stroke (width 0.1524) (type default) (color 0 0 0 0))
          (fill (type none))
        )
        (rectangle (start 3.81 -12.573) (end 2.54 -12.827)
          (stroke (width 0.1524) (type default) (color 0 0 0 0))
          (fill (type none))
        )
        (rectangle (start 3.81 -10.033) (end 2.54 -10.287)
          (stroke (width 0.1524) (type default) (color 0 0 0 0))
          (fill (type none))
        )
        (rectangle (start 3.81 -7.493) (end 2.54 -7.747)
          (stroke (width 0.1524) (type default) (color 0 0 0 0))
          (fill (type none))
        )
        (rectangle (start 3.81 -4.953) (end 2.54 -5.207)
          (stroke (width 0.1524) (type default) (color 0 0 0 0))
          (fill (type none))
        )
        (rectangle (start 3.81 -2.413) (end 2.54 -2.667)
          (stroke (width 0.1524) (type default) (color 0 0 0 0))
          (fill (type none))
        )
        (rectangle (start 3.81 0.127) (end 2.54 -0.127)
          (stroke (width 0.1524) (type default) (color 0 0 0 0))
          (fill (type none))
        )
        (rectangle (start 3.81 2.667) (end 2.54 2.413)
          (stroke (width 0.1524) (type default) (color 0 0 0 0))
          (fill (type none))
        )
        (rectangle (start 3.81 5.207) (end 2.54 4.953)
          (stroke (width 0.1524) (type default) (color 0 0 0 0))
          (fill (type none))
        )
        (rectangle (start 3.81 7.747) (end 2.54 7.493)
          (stroke (width 0.1524) (type default) (color 0 0 0 0))
          (fill (type none))
        )
        (rectangle (start 3.81 10.287) (end 2.54 10.033)
          (stroke (width 0.1524) (type default) (color 0 0 0 0))
          (fill (type none))
        )
        (rectangle (start 3.81 12.827) (end 2.54 12.573)
          (stroke (width 0.1524) (type default) (color 0 0 0 0))
          (fill (type none))
        )
        (rectangle (start 3.81 15.367) (end 2.54 15.113)
          (stroke (width 0.1524) (type default) (color 0 0 0 0))
          (fill (type none))
        )
        (rectangle (start 3.81 17.907) (end 2.54 17.653)
          (stroke (width 0.1524) (type default) (color 0 0 0 0))
          (fill (type none))
        )
        (rectangle (start 3.81 20.447) (end 2.54 20.193)
          (stroke (width 0.1524) (type default) (color 0 0 0 0))
          (fill (type none))
        )
        (rectangle (start 3.81 22.987) (end 2.54 22.733)
          (stroke (width 0.1524) (type default) (color 0 0 0 0))
          (fill (type none))
        )
        (pin passive line (at -5.08 22.86 0) (length 3.81)
          (name "Pin_1" (effects (font (size 1.27 1.27))))
          (number "1" (effects (font (size 1.27 1.27))))
        )
        (pin passive line (at 7.62 12.7 180) (length 3.81)
          (name "Pin_10" (effects (font (size 1.27 1.27))))
          (number "10" (effects (font (size 1.27 1.27))))
        )
        (pin passive line (at -5.08 10.16 0) (length 3.81)
          (name "Pin_11" (effects (font (size 1.27 1.27))))
          (number "11" (effects (font (size 1.27 1.27))))
        )
        (pin passive line (at 7.62 10.16 180) (length 3.81)
          (name "Pin_12" (effects (font (size 1.27 1.27))))
          (number "12" (effects (font (size 1.27 1.27))))
        )
        (pin passive line (at -5.08 7.62 0) (length 3.81)
          (name "Pin_13" (effects (font (size 1.27 1.27))))
          (number "13" (effects (font (size 1.27 1.27))))
        )
        (pin passive line (at 7.62 7.62 180) (length 3.81)
          (name "Pin_14" (effects (font (size 1.27 1.27))))
          (number "14" (effects (font (size 1.27 1.27))))
        )
        (pin passive line (at -5.08 5.08 0) (length 3.81)
          (name "Pin_15" (effects (font (size 1.27 1.27))))
          (number "15" (effects (font (size 1.27 1.27))))
        )
        (pin passive line (at 7.62 5.08 180) (length 3.81)
          (name "Pin_16" (effects (font (size 1.27 1.27))))
          (number "16" (effects (font (size 1.27 1.27))))
        )
        (pin passive line (at -5.08 2.54 0) (length 3.81)
          (name "Pin_17" (effects (font (size 1.27 1.27))))
          (number "17" (effects (font (size 1.27 1.27))))
        )
        (pin passive line (at 7.62 2.54 180) (length 3.81)
          (name "Pin_18" (effects (font (size 1.27 1.27))))
          (number "18" (effects (font (size 1.27 1.27))))
        )
        (pin passive line (at -5.08 0 0) (length 3.81)
          (name "Pin_19" (effects (font (size 1.27 1.27))))
          (number "19" (effects (font (size 1.27 1.27))))
        )
        (pin passive line (at 7.62 22.86 180) (length 3.81)
          (name "Pin_2" (effects (font (size 1.27 1.27))))
          (number "2" (effects (font (size 1.27 1.27))))
        )
        (pin passive line (at 7.62 0 180) (length 3.81)
          (name "Pin_20" (effects (font (size 1.27 1.27))))
          (number "20" (effects (font (size 1.27 1.27))))
        )
        (pin passive line (at -5.08 -2.54 0) (length 3.81)
          (name "Pin_21" (effects (font (size 1.27 1.27))))
          (number "21" (effects (font (size 1.27 1.27))))
        )
        (pin passive line (at 7.62 -2.54 180) (length 3.81)
          (name "Pin_22" (effects (font (size 1.27 1.27))))
          (number "22" (effects (font (size 1.27 1.27))))
        )
        (pin passive line (at -5.08 -5.08 0) (length 3.81)
          (name "Pin_23" (effects (font (size 1.27 1.27))))
          (number "23" (effects (font (size 1.27 1.27))))
        )
        (pin passive line (at 7.62 -5.08 180) (length 3.81)
          (name "Pin_24" (effects (font (size 1.27 1.27))))
          (number "24" (effects (font (size 1.27 1.27))))
        )
        (pin passive line (at -5.08 -7.62 0) (length 3.81)
          (name "Pin_25" (effects (font (size 1.27 1.27))))
          (number "25" (effects (font (size 1.27 1.27))))
        )
        (pin passive line (at 7.62 -7.62 180) (length 3.81)
          (name "Pin_26" (effects (font (size 1.27 1.27))))
          (number "26" (effects (font (size 1.27 1.27))))
        )
        (pin passive line (at -5.08 -10.16 0) (length 3.81)
          (name "Pin_27" (effects (font (size 1.27 1.27))))
          (number "27" (effects (font (size 1.27 1.27))))
        )
        (pin passive line (at 7.62 -10.16 180) (length 3.81)
          (name "Pin_28" (effects (font (size 1.27 1.27))))
          (number "28" (effects (font (size 1.27 1.27))))
        )
        (pin passive line (at -5.08 -12.7 0) (length 3.81)
          (name "Pin_29" (effects (font (size 1.27 1.27))))
          (number "29" (effects (font (size 1.27 1.27))))
        )
        (pin passive line (at -5.08 20.32 0) (length 3.81)
          (name "Pin_3" (effects (font (size 1.27 1.27))))
          (number "3" (effects (font (size 1.27 1.27))))
        )
        (pin passive line (at 7.62 -12.7 180) (length 3.81)
          (name "Pin_30" (effects (font (size 1.27 1.27))))
          (number "30" (effects (font (size 1.27 1.27))))
        )
        (pin passive line (at -5.08 -15.24 0) (length 3.81)
          (name "Pin_31" (effects (font (size 1.27 1.27))))
          (number "31" (effects (font (size 1.27 1.27))))
        )
        (pin passive line (at 7.62 -15.24 180) (length 3.81)
          (name "Pin_32" (effects (font (size 1.27 1.27))))
          (number "32" (effects (font (size 1.27 1.27))))
        )
        (pin passive line (at -5.08 -17.78 0) (length 3.81)
          (name "Pin_33" (effects (font (size 1.27 1.27))))
          (number "33" (effects (font (size 1.27 1.27))))
        )
        (pin passive line (at 7.62 -17.78 180) (length 3.81)
          (name "Pin_34" (effects (font (size 1.27 1.27))))
          (number "34" (effects (font (size 1.27 1.27))))
        )
        (pin passive line (at -5.08 -20.32 0) (length 3.81)
          (name "Pin_35" (effects (font (size 1.27 1.27))))
          (number "35" (effects (font (size 1.27 1.27))))
        )
        (pin passive line (at 7.62 -20.32 180) (length 3.81)
          (name "Pin_36" (effects (font (size 1.27 1.27))))
          (number "36" (effects (font (size 1.27 1.27))))
        )
        (pin passive line (at -5.08 -22.86 0) (length 3.81)
          (name "Pin_37" (effects (font (size 1.27 1.27))))
          (number "37" (effects (font (size 1.27 1.27))))
        )
        (pin passive line (at 7.62 -22.86 180) (length 3.81)
          (name "Pin_38" (effects (font (size 1.27 1.27))))
          (number "38" (effects (font (size 1.27 1.27))))
        )
        (pin passive line (at -5.08 -25.4 0) (length 3.81)
          (name "Pin_39" (effects (font (size 1.27 1.27))))
          (number "39" (effects (font (size 1.27 1.27))))
        )
        (pin passive line (at 7.62 20.32 180) (length 3.81)
          (name "Pin_4" (effects (font (size 1.27 1.27))))
          (number "4" (effects (font (size 1.27 1.27))))
        )
        (pin passive line (at 7.62 -25.4 180) (length 3.81)
          (name "Pin_40" (effects (font (size 1.27 1.27))))
          (number "40" (effects (font (size 1.27 1.27))))
        )
        (pin passive line (at -5.08 17.78 0) (length 3.81)
          (name "Pin_5" (effects (font (size 1.27 1.27))))
          (number "5" (effects (font (size 1.27 1.27))))
        )
        (pin passive line (at 7.62 17.78 180) (length 3.81)
          (name "Pin_6" (effects (font (size 1.27 1.27))))
          (number "6" (effects (font (size 1.27 1.27))))
        )
        (pin passive line (at -5.08 15.24 0) (length 3.81)
          (name "Pin_7" (effects (font (size 1.27 1.27))))
          (number "7" (effects (font (size 1.27 1.27))))
        )
        (pin passive line (at 7.62 15.24 180) (length 3.81)
          (name "Pin_8" (effects (font (size 1.27 1.27))))
          (number "8" (effects (font (size 1.27 1.27))))
        )
        (pin passive line (at -5.08 12.7 0) (length 3.81)
          (name "Pin_9" (effects (font (size 1.27 1.27))))
          (number "9" (effects (font (size 1.27 1.27))))
        )
      )
    )
  )


  (wire (pts (xy 226.06 67.31) (xy 229.235 67.31))
    (stroke (width 0) (type default) (color 0 0 0 0))
    (uuid 075c195a-1a76-49ff-b763-4e7961f4abcb)
  )
  (wire (pts (xy 78.105 154.305) (xy 82.55 154.305))
    (stroke (width 0) (type default) (color 0 0 0 0))
    (uuid 0ade9591-4375-40c1-ad89-f25eb1206d99)
  )
  (wire (pts (xy 78.105 161.925) (xy 82.55 161.925))
    (stroke (width 0) (type default) (color 0 0 0 0))
    (uuid 0dfbcbe1-8457-471b-8c36-26974b0e787e)
  )
  (wire (pts (xy 226.06 54.61) (xy 229.235 54.61))
    (stroke (width 0) (type default) (color 0 0 0 0))
    (uuid 2c99acac-67fa-4bac-a543-9ead5d2ad5c0)
  )
  (wire (pts (xy 45.085 169.545) (xy 50.165 169.545))
    (stroke (width 0) (type default) (color 0 0 0 0))
    (uuid 40aa9b57-1a6d-44eb-bbb4-915fcae58dc8)
  )
  (wire (pts (xy 45.085 156.845) (xy 50.165 156.845))
    (stroke (width 0) (type default) (color 0 0 0 0))
    (uuid 4d57934e-9ece-432c-b63d-cf847fa71567)
  )
  (wire (pts (xy 78.105 164.465) (xy 82.55 164.465))
    (stroke (width 0) (type default) (color 0 0 0 0))
    (uuid 4e875cda-94de-446e-9b41-1f8bf4f98de3)
  )
  (wire (pts (xy 226.06 64.77) (xy 229.235 64.77))
    (stroke (width 0) (type default) (color 0 0 0 0))
    (uuid 4fd35fa6-072e-4192-898a-4c7e872a4551)
  )
  (wire (pts (xy 226.06 59.69) (xy 229.235 59.69))
    (stroke (width 0) (type default) (color 0 0 0 0))
    (uuid 5252ba7c-900a-4746-8113-23013c5bace4)
  )
  (wire (pts (xy 78.105 169.545) (xy 82.55 169.545))
    (stroke (width 0) (type default) (color 0 0 0 0))
    (uuid 55f0c5f5-ece4-4208-a772-35bee7bf78b7)
  )
  (wire (pts (xy 226.06 72.39) (xy 229.235 72.39))
    (stroke (width 0) (type default) (color 0 0 0 0))
    (uuid 64d54bba-754f-4fd5-b5b5-8ee68a6cdb53)
  )
  (wire (pts (xy 226.06 52.07) (xy 229.235 52.07))
    (stroke (width 0) (type default) (color 0 0 0 0))
    (uuid 6d1cee1c-e295-418a-8a32-79865d092d71)
  )
  (wire (pts (xy 226.06 77.47) (xy 229.235 77.47))
    (stroke (width 0) (type default) (color 0 0 0 0))
    (uuid 725c4d26-2adc-40f9-a956-52574a711a0f)
  )
  (wire (pts (xy 226.06 69.85) (xy 229.235 69.85))
    (stroke (width 0) (type default) (color 0 0 0 0))
    (uuid 7629d731-bb4d-4ec5-8654-0a0c06127efe)
  )
  (wire (pts (xy 78.105 172.085) (xy 82.55 172.085))
    (stroke (width 0) (type default) (color 0 0 0 0))
    (uuid 7b08a1c6-e82c-4cda-b743-22641769ef57)
  )
  (wire (pts (xy 226.06 85.09) (xy 229.235 85.09))
    (stroke (width 0) (type default) (color 0 0 0 0))
    (uuid 842201ef-e1f8-4307-96af-f3c88d04e2cb)
  )
  (wire (pts (xy 45.085 161.925) (xy 50.165 161.925))
    (stroke (width 0) (type default) (color 0 0 0 0))
    (uuid 85fe34ac-0f5b-4b57-a1c5-1547ff15d97c)
  )
  (wire (pts (xy 45.085 167.005) (xy 50.165 167.005))
    (stroke (width 0) (type default) (color 0 0 0 0))
    (uuid 8b40cfc6-20d3-40e4-a639-4be1b1bab4dc)
  )
  (wire (pts (xy 226.06 62.23) (xy 229.235 62.23))
    (stroke (width 0) (type default) (color 0 0 0 0))
    (uuid 93f44a68-f306-4b53-9708-b5634670365f)
  )
  (wire (pts (xy 45.085 154.305) (xy 50.165 154.305))
    (stroke (width 0) (type default) (color 0 0 0 0))
    (uuid 9c5670a1-9775-4227-a00a-e42236ea7fc7)
  )
  (wire (pts (xy 78.105 159.385) (xy 82.55 159.385))
    (stroke (width 0) (type default) (color 0 0 0 0))
    (uuid ab9d3bcd-7f8f-4b3d-b9ae-2c729487f28f)
  )
  (wire (pts (xy 226.06 49.53) (xy 229.235 49.53))
    (stroke (width 0) (type default) (color 0 0 0 0))
    (uuid aff929c5-4821-4330-b669-7e2e43a18f4e)
  )
  (wire (pts (xy 226.06 57.15) (xy 229.235 57.15))
    (stroke (width 0) (type default) (color 0 0 0 0))
    (uuid b21ce3cb-06e6-4faa-80d6-9deda4e6b364)
  )
  (wire (pts (xy 226.06 74.93) (xy 229.235 74.93))
    (stroke (width 0) (type default) (color 0 0 0 0))
    (uuid b7f8ec17-93e5-42d1-a086-c03aeebff333)
  )
  (wire (pts (xy 78.105 167.005) (xy 82.55 167.005))
    (stroke (width 0) (type default) (color 0 0 0 0))
    (uuid b841aab3-9da7-4e95-ba39-b72d72146296)
  )
  (wire (pts (xy 45.085 159.385) (xy 50.165 159.385))
    (stroke (width 0) (type default) (color 0 0 0 0))
    (uuid c24b4cac-73aa-4e9d-a794-057b99bfff3b)
  )
  (wire (pts (xy 226.06 80.01) (xy 229.235 80.01))
    (stroke (width 0) (type default) (color 0 0 0 0))
    (uuid c5b2c9aa-26de-4ff9-9ff2-e8076a39365a)
  )
  (wire (pts (xy 78.105 156.845) (xy 82.55 156.845))
    (stroke (width 0) (type default) (color 0 0 0 0))
    (uuid c680aa70-4440-41a9-9d11-36e88e4cff65)
  )
  (wire (pts (xy 45.085 172.085) (xy 50.165 172.085))
    (stroke (width 0) (type default) (color 0 0 0 0))
    (uuid d36e21dd-f597-43ad-9ff4-5500c067f31d)
  )
  (wire (pts (xy 226.06 82.55) (xy 229.235 82.55))
    (stroke (width 0) (type default) (color 0 0 0 0))
    (uuid dec188b4-955d-4293-931d-f6f36adc1332)
  )
  (wire (pts (xy 45.085 164.465) (xy 50.165 164.465))
    (stroke (width 0) (type default) (color 0 0 0 0))
    (uuid f14d9d25-3ad4-4ba1-b81e-306fcdc3e5dd)
  )

  (label "TMC_DC-EN_C-Axis" (at 226.06 72.39 180)
    (effects (font (size 1.27 1.27)) (justify right bottom))
    (uuid 0b7c9fde-876e-42e1-b3af-1a829d12af34)
  )
  (label "TMC_DIAG0_A-Axis" (at 226.06 57.15 180)
    (effects (font (size 1.27 1.27)) (justify right bottom))
    (uuid 3c86f61f-6e2a-469e-9f28-1331248da9d3)
  )
  (label "TMC_DC-IN_B-Axis" (at 226.06 64.77 180)
    (effects (font (size 1.27 1.27)) (justify right bottom))
    (uuid 41a5d5ca-cff0-4051-a9f0-2f0a1b2c2dc7)
  )
  (label "TMC_CSN_Z-Axis" (at 82.55 167.005 0)
    (effects (font (size 1.27 1.27)) (justify left bottom))
    (uuid 4e8cb2e3-ce6f-45a3-a193-5633216eff7f)
  )
  (label "SPI_MOSI" (at 82.55 159.385 0)
    (effects (font (size 1.27 1.27)) (justify left bottom))
    (uuid 4f771659-27c3-41e9-a4ed-5e6112ab2d01)
  )
  (label "TMC_DC-EN_A-Axis" (at 226.06 52.07 180)
    (effects (font (size 1.27 1.27)) (justify right bottom))
    (uuid 50adeb8e-0e01-4ffc-92ec-005a43a48457)
  )
  (label "UNSAFE_5V_OVP" (at 45.085 154.305 180)
    (effects (font (size 1.27 1.27)) (justify right bottom))
    (uuid 5137c0bf-8fcb-4485-9000-19ebb3efea4e)
  )
  (label "TMC_DC-IN_A-Axis" (at 226.06 54.61 180)
    (effects (font (size 1.27 1.27)) (justify right bottom))
    (uuid 62ceda48-6d35-42a1-8047-a6b04aaf0c3e)
  )
  (label "TMC_DRV_EN_A-Axis" (at 226.06 80.01 180)
    (effects (font (size 1.27 1.27)) (justify right bottom))
    (uuid 6896ce25-64db-4b56-b0f8-25503cd9d64b)
  )
  (label "TMC_DC-O_A-Axis" (at 226.06 49.53 180)
    (effects (font (size 1.27 1.27)) (justify right bottom))
    (uuid 7d2cc31f-ff2b-4030-baf9-4886c9aeb5f2)
  )
  (label "TMC_DC-O_C-Axis" (at 226.06 69.85 180)
    (effects (font (size 1.27 1.27)) (justify right bottom))
    (uuid 8b26757e-432c-4474-9aa4-a3816acb74f8)
  )
  (label "TMC_DIAG0_B-Axis" (at 226.06 67.31 180)
    (effects (font (size 1.27 1.27)) (justify right bottom))
    (uuid 9bff9d4c-ce12-4d54-aac1-6d925a2e4179)
  )
  (label "TMC_DC-EN_B-Axis" (at 226.06 62.23 180)
    (effects (font (size 1.27 1.27)) (justify right bottom))
    (uuid ade88a16-45f1-422a-9e13-de33d3aa7ff0)
  )
  (label "TMC_CSN_X-Axis" (at 82.55 161.925 0)
    (effects (font (size 1.27 1.27)) (justify left bottom))
    (uuid bf5ffe77-b79a-414e-8079-985fb57e603c)
  )
  (label "TMC_DIAG0_C-Axis" (at 226.06 77.47 180)
    (effects (font (size 1.27 1.27)) (justify right bottom))
    (uuid c62d4893-7c68-4b2f-bcfb-a74fc67149f8)
  )
  (label "SPI_SCK" (at 82.55 156.845 0)
    (effects (font (size 1.27 1.27)) (justify left bottom))
    (uuid c8f9be0b-7e2a-4a7c-a198-73fb9d1c198c)
  )
  (label "TMC_DRV_EN_C-Axis" (at 226.06 85.09 180)
    (effects (font (size 1.27 1.27)) (justify right bottom))
    (uuid ccc1fb39-db9c-4229-9483-a2e3602b5cb0)
  )
  (label "TMC_DC-O_B-Axis" (at 226.06 59.69 180)
    (effects (font (size 1.27 1.27)) (justify right bottom))
    (uuid d06d06fa-9301-42a3-ab61-dfa0d6d653f4)
  )
  (label "UNSAFE_5V_GND_OVP" (at 45.085 172.085 180)
    (effects (font (size 1.27 1.27)) (justify right bottom))
    (uuid d81dad3b-aa06-4068-9b40-e810030ab26e)
  )
  (label "TMC_DC-IN_C-Axis" (at 226.06 74.93 180)
    (effects (font (size 1.27 1.27)) (justify right bottom))
    (uuid d8b97e11-c7d3-44b3-9c4f-275c618a775c)
  )
  (label "TMC_CSN_Y-Axis" (at 82.55 164.465 0)
    (effects (font (size 1.27 1.27)) (justify left bottom))
    (uuid e0458e2e-98e1-4034-b44b-6f196b40cf95)
  )
  (label "TMC_DRV_EN_B-Axis" (at 226.06 82.55 180)
    (effects (font (size 1.27 1.27)) (justify right bottom))
    (uuid e5a0647f-6f8b-4fcf-8f83-f3d2609b82b9)
  )
  (label "SAFE_5V_GND_OVP" (at 82.55 172.085 0)
    (effects (font (size 1.27 1.27)) (justify left bottom))
    (uuid edc6ccf3-dbe0-4487-8820-2b2376269d73)
  )
  (label "SPI_MISO" (at 82.55 169.545 0)
    (effects (font (size 1.27 1.27)) (justify left bottom))
    (uuid f0b4c23c-c6e0-4071-9b2a-819d8a3098eb)
  )
  (label "SAFE_5V_OVP" (at 82.55 154.305 0)
    (effects (font (size 1.27 1.27)) (justify left bottom))
    (uuid f8660af6-841a-4b57-beba-7c3cbb87ea77)
  )

  (hierarchical_label "UNSAFE_5V_OVP" (shape input) (at 53.975 88.9 0)
    (effects (font (size 1.27 1.27)) (justify left))
    (uuid 0125106f-6f6e-4a42-a8cb-6dc4da9a4322)
  )
  (hierarchical_label "SPI_MISO" (shape input) (at 42.545 113.665 180)
    (effects (font (size 1.27 1.27)) (justify right))
    (uuid 0188136b-2f03-4cd4-8f7b-5a33656f5641)
  )
  (hierarchical_label "SPI_MOSI" (shape input) (at 45.085 159.385 180)
    (effects (font (size 1.27 1.27)) (justify right))
    (uuid 033eace0-8822-45d6-ab2a-323a676d6350)
  )
  (hierarchical_label "TMC_DIAG0_B-Axis" (shape input) (at 42.545 94.615 180)
    (effects (font (size 1.27 1.27)) (justify right))
    (uuid 0921ebf9-2a85-4087-9aa3-f3141411030f)
  )
  (hierarchical_label "UNSAFE_5V_GND_OVP" (shape input) (at 53.975 90.805 0)
    (effects (font (size 1.27 1.27)) (justify left))
    (uuid 0df8ac50-91ca-471c-a2bf-3fc9ebf81672)
  )
  (hierarchical_label "STEP_B-Axis" (shape input) (at 53.975 121.285 0)
    (effects (font (size 1.27 1.27)) (justify left))
    (uuid 1b4f5387-3691-40e3-a167-e90a4894043e)
  )
  (hierarchical_label "SAFE_24V_GND_OVP" (shape input) (at 53.975 81.915 0)
    (effects (font (size 1.27 1.27)) (justify left))
    (uuid 1cd4ee4d-3a4e-4f51-9e9e-90d87cc31b51)
  )
  (hierarchical_label "SAFE_24V_OVP_B-Axis" (shape input) (at 53.975 77.47 0)
    (effects (font (size 1.27 1.27)) (justify left))
    (uuid 2321fc06-8971-4c4e-bafe-8372f54e829b)
  )
  (hierarchical_label "SAFE_5V_GND_OVP" (shape input) (at 53.975 95.885 0)
    (effects (font (size 1.27 1.27)) (justify left))
    (uuid 26d195b1-26c7-4514-9de4-6a939b4d70c7)
  )
  (hierarchical_label "SPI_SCK" (shape input) (at 45.085 156.845 180)
    (effects (font (size 1.27 1.27)) (justify right))
    (uuid 271d94b8-5780-4521-b731-253043a31085)
  )
  (hierarchical_label "STEP_C-Axis" (shape input) (at 53.975 126.365 0)
    (effects (font (size 1.27 1.27)) (justify left))
    (uuid 289602ac-ce83-40ea-8852-39dc573e0154)
  )
  (hierarchical_label "SPI_MISO" (shape input) (at 45.085 169.545 180)
    (effects (font (size 1.27 1.27)) (justify right))
    (uuid 29cee2de-6861-4c20-9f43-8a3b37c81dd5)
  )
  (hierarchical_label "DRV_EN_A-Axis" (shape input) (at 53.975 103.505 0)
    (effects (font (size 1.27 1.27)) (justify left))
    (uuid 399220e4-ad2b-478c-a8f5-33c32441ea17)
  )
  (hierarchical_label "TMC_DC-IN_B-Axis" (shape input) (at 42.545 92.71 180)
    (effects (font (size 1.27 1.27)) (justify right))
    (uuid 4d3fbe30-8d80-40e0-b7ae-5eda5664f629)
  )
  (hierarchical_label "SAFE_24V_OVP_A-Axis" (shape input) (at 53.975 75.565 0)
    (effects (font (size 1.27 1.27)) (justify left))
    (uuid 573467c2-71d0-4d51-9c81-8c5ecd95a013)
  )
  (hierarchical_label "TMC_DC-O_C-Axis" (shape input) (at 41.91 97.79 180)
    (effects (font (size 1.27 1.27)) (justify right))
    (uuid 67634f30-f646-498b-bdf6-2c355ff775e2)
  )
  (hierarchical_label "DIR_C-Axis" (shape input) (at 53.975 124.46 0)
    (effects (font (size 1.27 1.27)) (justify left))
    (uuid 6c346650-092b-4155-a2d5-433c85250b59)
  )
  (hierarchical_label "TMC_DIAG0_C-Axis" (shape input) (at 41.91 103.505 180)
    (effects (font (size 1.27 1.27)) (justify right))
    (uuid 6c4e2673-06d9-445a-8fee-40ae7041b856)
  )
  (hierarchical_label "TMC_DC-O_A-Axis" (shape input) (at 42.545 80.01 180)
    (effects (font (size 1.27 1.27)) (justify right))
    (uuid 76960a02-8dc2-470d-8793-327a2e27c014)
  )
  (hierarchical_label "DIR_B-Axis" (shape input) (at 53.975 119.38 0)
    (effects (font (size 1.27 1.27)) (justify left))
    (uuid 7c2e2eac-a58d-436d-b4b6-f12f3dce2920)
  )
  (hierarchical_label "TMC_CSN_A-Axis" (shape input) (at 42.545 118.745 180)
    (effects (font (size 1.27 1.27)) (justify right))
    (uuid 7c87416a-70d3-4308-b70a-08a38b4590d8)
  )
  (hierarchical_label "TMC_DC-O_B-Axis" (shape input) (at 42.545 88.9 180)
    (effects (font (size 1.27 1.27)) (justify right))
    (uuid 82d12f31-14bb-41a7-b978-8b6ff1e73d54)
  )
  (hierarchical_label "CSN_Y-Axis" (shape input) (at 45.085 164.465 180)
    (effects (font (size 1.27 1.27)) (justify right))
    (uuid 83f826e3-1e8c-47d9-b753-d7c1dec11a3f)
  )
  (hierarchical_label "DRV_EN_C-Axis" (shape input) (at 53.975 107.315 0)
    (effects (font (size 1.27 1.27)) (justify left))
    (uuid 8692996b-ff76-4243-8d4e-f1e2767e31a1)
  )
  (hierarchical_label "SAFE_24V_OVP_C-Axis" (shape input) (at 53.975 79.375 0)
    (effects (font (size 1.27 1.27)) (justify left))
    (uuid 8bf989eb-6067-4bc7-921a-7cbcb51e4056)
  )
  (hierarchical_label "TMC_CSN_C-Axis" (shape input) (at 42.545 122.555 180)
    (effects (font (size 1.27 1.27)) (justify right))
    (uuid 96a22811-cfaa-45cb-927f-718130c698f0)
  )
  (hierarchical_label "TMC_DC-IN_C-Axis" (shape input) (at 41.91 101.6 180)
    (effects (font (size 1.27 1.27)) (justify right))
    (uuid a4ff9bd8-324b-49d7-b473-142df63e2275)
  )
  (hierarchical_label "STEP_A-Axis" (shape input) (at 53.975 116.205 0)
    (effects (font (size 1.27 1.27)) (justify left))
    (uuid a551c261-a33f-420c-8496-929d48963eec)
  )
  (hierarchical_label "DIR_A-Axis" (shape input) (at 53.975 114.3 0)
    (effects (font (size 1.27 1.27)) (justify left))
    (uuid a593fca6-fcc1-4892-81c7-ba11b711a2d0)
  )
  (hierarchical_label "SPI_MOSI" (shape input) (at 42.545 115.57 180)
    (effects (font (size 1.27 1.27)) (justify right))
    (uuid b7723b28-f2bb-4f44-9dd9-a41ed5b213a7)
  )
  (hierarchical_label "SPI_SCK" (shape input) (at 42.545 111.76 180)
    (effects (font (size 1.27 1.27)) (justify right))
    (uuid bed4fac2-a292-464b-98fa-d750369a6dfd)
  )
  (hierarchical_label "CSN_X-Axis" (shape input) (at 45.085 161.925 180)
    (effects (font (size 1.27 1.27)) (justify right))
    (uuid c9898d63-3bf0-4cc4-a46f-52c3e320fb5b)
  )
  (hierarchical_label "CSN_Z-Axis" (shape input) (at 45.085 167.005 180)
    (effects (font (size 1.27 1.27)) (justify right))
    (uuid cb8962fb-6195-4b4e-8247-ae0eb90c61f7)
  )
  (hierarchical_label "TMC_DC-EN_A-Axis" (shape input) (at 42.545 81.915 180)
    (effects (font (size 1.27 1.27)) (justify right))
    (uuid d17144f1-300e-42b2-a823-fda005881ba3)
  )
  (hierarchical_label "SAFE_5V_OVP" (shape input) (at 53.975 93.98 0)
    (effects (font (size 1.27 1.27)) (justify left))
    (uuid d2074350-cf76-41b8-9900-612052de165c)
  )
  (hierarchical_label "TMC_DC-EN_C-Axis" (shape input) (at 41.91 99.695 180)
    (effects (font (size 1.27 1.27)) (justify right))
    (uuid f2b96245-093f-4b46-98fc-cbc68453f2b4)
  )
  (hierarchical_label "DRV_EN_B-Axis" (shape input) (at 53.975 105.41 0)
    (effects (font (size 1.27 1.27)) (justify left))
    (uuid f479c339-3a5b-4069-8d93-2d7eb1cca77d)
  )
  (hierarchical_label "TMC_DIAG0_A-Axis" (shape input) (at 42.545 85.725 180)
    (effects (font (size 1.27 1.27)) (justify right))
    (uuid f6251da3-c81e-47ed-b47f-a390b5885578)
  )
  (hierarchical_label "TMC_CSN_B-Axis" (shape input) (at 42.545 120.65 180)
    (effects (font (size 1.27 1.27)) (justify right))
    (uuid fb653c74-ba25-4919-b551-a8fd09bbe12d)
  )
  (hierarchical_label "TMC_DC-IN_A-Axis" (shape input) (at 42.545 83.82 180)
    (effects (font (size 1.27 1.27)) (justify right))
    (uuid fc195212-03c3-456e-8c13-cd6ea1f24622)
  )
  (hierarchical_label "TMC_DC-EN_B-Axis" (shape input) (at 42.545 90.805 180)
    (effects (font (size 1.27 1.27)) (justify right))
    (uuid fe533f75-fa4d-465f-862f-e3d101d05357)
  )

  (symbol (lib_id "BoBv2:ISO6761QDWRQ1") (at 50.165 154.305 0) (unit 1)
    (in_bom yes) (on_board yes) (fields_autoplaced)
    (uuid 9404aff4-52b0-4031-93d5-4b69725040c9)
    (property "Reference" "IC?" (id 0) (at 64.135 148.116 0))
    (property "Value" "ISO6761QDWRQ1" (id 1) (at 64.135 150.6529 0))
    (property "Footprint" "SOIC127P1030X265-16N" (id 2) (at 74.295 151.765 0)
      (effects (font (size 1.27 1.27)) (justify left) hide)
    )
    (property "Datasheet" "https://www.ti.com/lit/ds/symlink/iso6763-q1.pdf" (id 3) (at 74.295 154.305 0)
      (effects (font (size 1.27 1.27)) (justify left) hide)
    )
    (property "Description" "General-Purpose Six-Channel Automotive Reinforced Digital Isolators with Robust EMC" (id 4) (at 74.295 156.845 0)
      (effects (font (size 1.27 1.27)) (justify left) hide)
    )
    (property "Height" "2.65" (id 5) (at 74.295 159.385 0)
      (effects (font (size 1.27 1.27)) (justify left) hide)
    )
    (property "Manufacturer_Name" "Texas Instruments" (id 6) (at 74.295 161.925 0)
      (effects (font (size 1.27 1.27)) (justify left) hide)
    )
    (property "Manufacturer_Part_Number" "ISO6761QDWRQ1" (id 7) (at 74.295 164.465 0)
      (effects (font (size 1.27 1.27)) (justify left) hide)
    )
    (property "Mouser Part Number" "595-ISO6761QDWRQ1" (id 8) (at 74.295 167.005 0)
      (effects (font (size 1.27 1.27)) (justify left) hide)
    )
    (property "Mouser Price/Stock" "https://www.mouser.co.uk/ProductDetail/Texas-Instruments/ISO6761QDWRQ1?qs=doiCPypUmgGpegZi362Uow%3D%3D" (id 9) (at 74.295 169.545 0)
      (effects (font (size 1.27 1.27)) (justify left) hide)
    )
    (property "Arrow Part Number" "" (id 10) (at 74.295 172.085 0)
      (effects (font (size 1.27 1.27)) (justify left) hide)
    )
    (property "Arrow Price/Stock" "" (id 11) (at 74.295 174.625 0)
      (effects (font (size 1.27 1.27)) (justify left) hide)
    )
    (pin "1" (uuid d6e00b7e-d0d5-447b-bb89-c41bdd446d09))
    (pin "10" (uuid 8e8a6f1d-04c7-4ce6-be85-a8603192bce5))
    (pin "11" (uuid 7490c6e5-6260-43ea-b5ec-eb14ddd4c176))
    (pin "12" (uuid 0e395137-cc81-49bc-9302-e3331cb00a33))
    (pin "13" (uuid ac72cc59-0a27-473e-802c-ec788f8a73ce))
    (pin "14" (uuid 66f8c001-d01c-4501-bcac-567f2b6ad3f7))
    (pin "15" (uuid 4ba52482-9a3f-4f8a-a4ff-0d3f43904419))
    (pin "16" (uuid 24c694e5-fa13-4874-befb-94e6cdac760e))
    (pin "2" (uuid 9f03d326-2dda-497e-b4a9-0704e004d034))
    (pin "3" (uuid 4dcf3403-cf01-466b-a1b9-c30dbcc42d03))
    (pin "4" (uuid ffd2550b-8be5-46d9-83f2-2915dec4f1db))
    (pin "5" (uuid e41eea5a-2d11-4666-9939-e88148025b5d))
    (pin "6" (uuid 87353552-b12c-4fcf-9b47-43b8615b88bf))
    (pin "7" (uuid 687f42e9-cbda-4f43-8014-f924764f4177))
    (pin "8" (uuid 158c86b5-6198-4a3e-b286-f4539f199c7c))
    (pin "9" (uuid 6b8789bb-c6a8-4191-b0e4-c5608f933f01))
  )

  (symbol (lib_id "Connector_Generic:Conn_02x20_Odd_Even") (at 234.315 72.39 0) (unit 1)
    (in_bom yes) (on_board yes) (fields_autoplaced)
    (uuid 96f4678f-dc6e-4197-9588-6d10159d0f1c)
    (property "Reference" "J?" (id 0) (at 235.585 42.545 0))
    (property "Value" "Conn_02x20_Odd_Even" (id 1) (at 235.585 45.085 0))
    (property "Footprint" "Connector_IDC:IDC-Header_2x20_P2.54mm_Horizontal" (id 2) (at 234.315 72.39 0)
      (effects (font (size 1.27 1.27)) hide)
    )
    (property "Datasheet" "~" (id 3) (at 234.315 72.39 0)
      (effects (font (size 1.27 1.27)) hide)
    )
    (pin "1" (uuid a09c4716-b8ae-45cb-b167-29668ee100a9))
    (pin "10" (uuid 6afea479-7c8f-4f48-8916-ca4203a7340e))
    (pin "11" (uuid 59ce88d1-b8f3-4ed4-9117-2c93837d717f))
    (pin "12" (uuid d458afa0-7946-4a18-a27b-962cc9b2c49f))
    (pin "13" (uuid e01e6e9c-dc9d-4d19-b2c8-5b66b8891d26))
    (pin "14" (uuid a34770d0-442f-4e8e-b52a-700d7454c8f8))
    (pin "15" (uuid d67c9869-0d8b-4171-b9a5-06e08b6609f0))
    (pin "16" (uuid 730adcaa-cc99-4cb2-8de1-28b1a5c60793))
    (pin "17" (uuid 8250c473-cfe7-43ed-a045-2af892435ece))
    (pin "18" (uuid a00f2ebe-df97-4009-835c-281076439326))
    (pin "19" (uuid 4d5a5962-b592-44c1-8f35-a4c4cc745a6d))
    (pin "2" (uuid 30e7fb5f-ee2f-4b21-9cde-6982d7b76847))
    (pin "20" (uuid 0bf9c6ff-fab6-4266-856b-0cb0d33ee07a))
    (pin "21" (uuid 78cae104-4340-4718-9b89-78bb60c59543))
    (pin "22" (uuid 552e978c-b7e5-4e46-ae84-26dc32f1860c))
    (pin "23" (uuid 1b8a78b9-95db-4880-aac2-495ced340dfb))
    (pin "24" (uuid c2128c3c-7d20-4cd1-bf6e-743910216db2))
    (pin "25" (uuid ee825980-b2b1-4690-a898-772ffb83524c))
    (pin "26" (uuid 76db06db-774e-43c9-a7cb-52b83a347c72))
    (pin "27" (uuid c53718f0-4854-4073-afab-f3dbddbc86af))
    (pin "28" (uuid c5ec0be9-c364-4d0f-83cb-238982e7677b))
    (pin "29" (uuid 709be684-7e2a-46ec-a481-3416fbed91a4))
    (pin "3" (uuid f38c7787-4d2f-4400-8b89-18ea1224ccde))
    (pin "30" (uuid c17e26f8-ca59-4504-a8d8-8abcc05776c8))
    (pin "31" (uuid 3d4c0f56-bfc3-4294-8003-09e0f327d8f7))
    (pin "32" (uuid 47eb66dc-3598-4cf9-a873-055e5213017f))
    (pin "33" (uuid 663a506f-1b22-40bb-85d0-955a11b9ef42))
    (pin "34" (uuid 672a0c9c-35e0-4a35-ad4a-5369cd853999))
    (pin "35" (uuid 0ca90730-808d-4733-9d6d-966fda434920))
    (pin "36" (uuid f7b6bd53-9af0-41a4-b7ae-60a5d5bef027))
    (pin "37" (uuid 5665c7fe-6b37-4564-a46a-340295641a11))
    (pin "38" (uuid de3c4854-440b-4b36-86d4-96440ed5309a))
    (pin "39" (uuid a670c27f-2c20-4139-a6c1-34dddfbc6d6c))
    (pin "4" (uuid e65fa0b4-8ecd-49b1-87fc-ace545277d8e))
    (pin "40" (uuid f73d3d98-e331-42c7-b3b9-8be2edc400ca))
    (pin "5" (uuid 30a87f94-da9b-4a69-8f70-40a328381355))
    (pin "6" (uuid 76d2b7a0-2f07-4dd8-8656-e07475db01cc))
    (pin "7" (uuid b0c3fb4a-4764-40b6-a381-8422d11a1403))
    (pin "8" (uuid e6d122e2-acdc-41bb-bf7f-7101ec7264d9))
    (pin "9" (uuid 517f02cd-7e4f-4804-ba69-50725a2616d4))
  )
)
